LucasFeitosaSátiro/mips_sim.vcd
$date
	Wed Apr  9 18:00:07 2025
$end
$version
	Icarus Verilog
$end
$timescale
	1ns
$end
$scope module Simulacao $end
$var reg 1 ! clk $end
$var reg 1 " reset $end
$var integer 32 # i [31:0] $end
$scope module mips $end
$var wire 1 $ branch_result $end
$var wire 1 ! clk $end
$var wire 1 " reset $end
$var wire 32 % shifted_extended [31:0] $end
$var wire 32 & registerReaded2 [31:0] $end
$var wire 32 ' registerReaded1 [31:0] $end
$var wire 32 ( readData [31:0] $end
$var wire 32 ) mux_write_data [31:0] $end
$var wire 5 * mux_registor_destiny [4:0] $end
$var wire 32 + mux_alu [31:0] $end
$var wire 32 , instrucao [31:0] $end
$var wire 32 - extended_address [31:0] $end
$var wire 1 . Zero $end
$var wire 1 / RegWrite $end
$var wire 1 0 RegDst $end
$var wire 1 1 MemtoREG $end
$var wire 1 2 MemWrite $end
$var wire 1 3 MemRead $end
$var wire 1 4 Branch $end
$var wire 1 5 ALUSrc $end
$var wire 32 6 ALUResult [31:0] $end
$var wire 4 7 ALUOperation [3:0] $end
$var wire 2 8 ALUOp [1:0] $end
$scope module alu $end
$var wire 1 . Zero $end
$var wire 32 9 B [31:0] $end
$var wire 4 : ALUOperation [3:0] $end
$var wire 32 ; A [31:0] $end
$var reg 32 < ALUResult [31:0] $end
$upscope $end
$scope module alucontrol $end
$var wire 6 = funct [5:0] $end
$var wire 2 > ALUOp [1:0] $end
$var reg 4 ? ALUOperation [3:0] $end
$upscope $end
$scope module controlUnit $end
$var wire 6 @ Op [5:0] $end
$var reg 2 A ALUOp [1:0] $end
$var reg 1 5 ALUSrc $end
$var reg 1 4 Branch $end
$var reg 1 3 MemRead $end
$var reg 1 2 MemWrite $end
$var reg 1 1 MemtoREG $end
$var reg 1 0 RegDst $end
$var reg 1 / RegWrite $end
$upscope $end
$scope module dmemory $end
$var wire 1 3 MemRead $end
$var wire 1 2 MemWrite $end
$var wire 32 B address [31:0] $end
$var wire 1 ! clk $end
$var wire 32 C writeData [31:0] $end
$var wire 32 D readData [31:0] $end
$var integer 32 E i [31:0] $end
$upscope $end
$scope module extender $end
$var wire 16 F in [15:0] $end
$var wire 32 G out [31:0] $end
$upscope $end
$scope module fetch $end
$var wire 1 $ branch $end
$var wire 1 ! clk $end
$var wire 1 " reset $end
$var wire 32 H pc_incrementado4 [31:0] $end
$var wire 32 I pc_incrementado [31:0] $end
$var wire 32 J instrucao [31:0] $end
$var wire 32 K extended_address [31:0] $end
$var wire 32 L added_instruction [31:0] $end
$var reg 32 M pc [31:0] $end
$scope module ad $end
$var wire 32 N sum [31:0] $end
$var wire 32 O b [31:0] $end
$var wire 32 P a [31:0] $end
$upscope $end
$scope module m4 $end
$var wire 32 Q b [31:0] $end
$var wire 1 $ selector $end
$var wire 32 R a [31:0] $end
$var reg 32 S out [31:0] $end
$upscope $end
$scope module memoria $end
$var wire 32 T addr [31:0] $end
$var wire 32 U instrucao [31:0] $end
$upscope $end
$scope module somador $end
$var wire 32 V in [31:0] $end
$var wire 32 W out [31:0] $end
$upscope $end
$upscope $end
$scope module m1 $end
$var wire 5 X a [4:0] $end
$var wire 5 Y b [4:0] $end
$var wire 1 0 selector $end
$var reg 5 Z out [4:0] $end
$upscope $end
$scope module m2 $end
$var wire 32 [ a [31:0] $end
$var wire 32 \ b [31:0] $end
$var wire 1 1 selector $end
$var reg 32 ] out [31:0] $end
$upscope $end
$scope module m3 $end
$var wire 32 ^ b [31:0] $end
$var wire 1 5 selector $end
$var wire 32 _ a [31:0] $end
$var reg 32 ` out [31:0] $end
$upscope $end
$scope module registradores $end
$var wire 32 a ReadData1 [31:0] $end
$var wire 32 b ReadData2 [31:0] $end
$var wire 5 c ReadRegister1 [4:0] $end
$var wire 5 d ReadRegister2 [4:0] $end
$var wire 1 / RegWrite $end
$var wire 32 e WriteData [31:0] $end
$var wire 5 f WriteRegister [4:0] $end
$var wire 1 ! clk $end
$var integer 32 g i [31:0] $end
$upscope $end
$scope module shifter $end
$var wire 32 h in [31:0] $end
$var wire 32 i out [31:0] $end
$upscope $end
$upscope $end
$upscope $end
$enddefinitions $end
$comment Show the parameter values. $end
$dumpall
$end
#0
$dumpvars
b101000 i
b1010 h
b100000 g
b1000 f
b1010 e
b1000 d
b0 c
b0 b
b0 a
b1010 `
b0 _
b1010 ^
b1010 ]
b0 \
b1010 [
b1000 Z
b0 Y
b1000 X
b100 W
b0 V
b100000000010000000000000001010 U
b0 T
b100 S
b100 R
b101100 Q
b100 P
b101000 O
b101100 N
b0 M
b101100 L
b101000 K
b100000000010000000000000001010 J
b100 I
b100 H
b1010 G
b1010 F
b100000000 E
b0 D
b0 C
b1010 B
b0 A
b1000 @
b10 ?
b0 >
b1010 =
b1010 <
b0 ;
b10 :
b1010 9
b0 8
b10 7
b1010 6
15
04
03
02
01
00
1/
0.
b1010 -
b100000000010000000000000001010 ,
b1010 +
b1000 *
b1010 )
b0 (
b0 '
b0 &
b101000 %
0$
bx #
1"
0!
$end
#5
b1010 &
b1010 C
b1010 _
b1010 b
1!
#10
0!
#15
1!
#20
0!
0"
#25
b101101 )
b101101 ]
b101101 e
b101101 6
b101101 <
b101101 B
b101101 [
b10110100 %
b10110100 K
b10110100 O
b10110100 i
b101101 +
b101101 9
b101101 `
b1001 *
b1001 Z
b1001 f
b101101 =
b0 &
b0 C
b0 _
b0 b
b1001 d
b101101 -
b101101 G
b101101 ^
b101101 h
b101101 F
b1001 X
b100000000010010000000000101101 ,
b100000000010010000000000101101 J
b100000000010010000000000101101 U
b1000 I
b1000 S
b10111100 L
b10111100 N
b10111100 Q
b1000 H
b1000 P
b1000 R
b1000 W
b100 M
b100 T
b100 V
1!
#30
0!
#35
b110111 )
b110111 ]
b110111 e
b110111 6
b110111 <
b110111 B
b110111 [
b10100000010000000 %
b10100000010000000 K
b10100000010000000 O
b10100000010000000 i
b1010 *
b1010 Z
b1010 f
b10 8
b10 >
b10 A
05
10
b100000 =
b1010 '
b1010 ;
b1010 a
b1000 c
b101000000100000 -
b101000000100000 G
b101000000100000 ^
b101000000100000 h
b101000000100000 F
b1010 Y
b0 @
b1000010010101000000100000 ,
b1000010010101000000100000 J
b1000010010101000000100000 U
b1100 I
b1100 S
b10100000010001100 L
b10100000010001100 N
b10100000010001100 Q
b1100 H
b1100 P
b1100 R
b1100 W
b1000 M
b1000 T
b1000 V
b101101 &
b101101 C
b101101 _
b101101 b
1!
#40
0!
#45
b1100100 )
b1100100 ]
b1100100 e
b1100100 6
b1100100 <
b1100100 B
b1100100 [
b10110100 %
b10110100 K
b10110100 O
b10110100 i
b1011 *
b1011 Z
b1011 f
b0 8
b0 >
b0 A
15
00
b101101 =
b0 &
b0 C
b0 _
b0 b
b1011 d
b110111 '
b110111 ;
b110111 a
b1010 c
b101101 -
b101101 G
b101101 ^
b101101 h
b101101 F
b0 Y
b1011 X
b1000 @
b100001010010110000000000101101 ,
b100001010010110000000000101101 J
b100001010010110000000000101101 U
b10000 I
b10000 S
b11000100 L
b11000100 N
b11000100 Q
b10000 H
b10000 P
b10000 R
b10000 W
b1100 M
b1100 T
b1100 V
1!
#50
0!
#55
1.
b0 6
b0 <
b0 B
b0 [
b0 %
b0 K
b0 O
b0 i
b0 +
b0 9
b0 `
12
0/
x1
x0
b0 =
b0 '
b0 ;
b0 a
b0 c
b0 -
b0 G
b0 ^
b0 h
b0 F
b101011 @
b10101100000010110000000000000000 ,
b10101100000010110000000000000000 J
b10101100000010110000000000000000 U
b10100 I
b10100 S
b10100 L
b10100 N
b10100 Q
b10100 H
b10100 P
b10100 R
b10100 W
b10000 M
b10000 T
b10000 V
b1100100 &
b1100100 C
b1100100 _
b1100100 b
1!
#60
0!
#65
0.
b110111 )
b110111 ]
b110111 e
b110 7
b110 :
b110 ?
b110111 6
b110111 <
b110111 B
b110111 [
b10110000010001000 %
b10110000010001000 K
b10110000010001000 O
b10110000010001000 i
b101101 +
b101101 9
b101101 `
b10 8
b10 >
b10 A
02
1/
01
05
10
b100010 =
b101101 &
b101101 C
b101101 _
b101101 b
b1001 d
b1100100 '
b1100100 ;
b1100100 a
b1011 c
b101100000100010 -
b101100000100010 G
b101100000100010 ^
b101100000100010 h
b101100000100010 F
b1011 Y
b1001 X
b0 @
b1011010010101100000100010 ,
b1011010010101100000100010 J
b1011010010101100000100010 U
b11000 I
b11000 S
b10110000010100000 L
b10110000010100000 N
b10110000010100000 Q
b11000 H
b11000 P
b11000 R
b11000 W
b10100 M
b10100 T
b10100 V
1!
#70
0!
#75
b10 7
b10 :
b10 ?
b101000 %
b101000 K
b101000 O
b101000 i
b110111 +
b110111 9
b110111 `
b1 8
b1 >
b1 A
14
0/
x1
x0
b1010 =
b110111 &
b110111 C
b110111 _
b110111 b
b1010 d
b1010 -
b1010 G
b1010 ^
b1010 h
b1010 F
b0 Y
b1010 X
b100 @
b1010 )
b1010 ]
b1010 e
b10001011010100000000000001010 ,
b10001011010100000000000001010 J
b10001011010100000000000001010 U
b11100 I
b11100 S
b1101110 6
b1101110 <
b1101110 B
b1101110 [
b1000100 L
b1000100 N
b1000100 Q
b11100 H
b11100 P
b11100 R
b11100 W
b11000 M
b11000 T
b11000 V
b110111 '
b110111 ;
b110111 a
1!
#80
0!
#85
1.
b0 )
b0 ]
b0 e
b1111 7
b1111 :
b1111 ?
b0 6
b0 <
b0 B
b0 [
b0 %
b0 K
b0 O
b0 i
b0 +
b0 9
b0 `
b0 *
b0 Z
b0 f
b10 8
b10 >
b10 A
04
1/
01
10
b0 =
b0 &
b0 C
b0 _
b0 b
b0 d
b0 '
b0 ;
b0 a
b0 c
b0 -
b0 G
b0 ^
b0 h
b0 F
b0 X
b0 @
b0 ,
b0 J
b0 U
b100000 I
b100000 S
b100000 L
b100000 N
b100000 Q
b100000 H
b100000 P
b100000 R
b100000 W
b11100 M
b11100 T
b11100 V
1!
#90
0!
#95
b100100 I
b100100 S
b100100 L
b100100 N
b100100 Q
b100100 H
b100100 P
b100100 R
b100100 W
b100000 M
b100000 T
b100000 V
1!
#100
0!
#105
b101000 I
b101000 S
b101000 L
b101000 N
b101000 Q
b101000 H
b101000 P
b101000 R
b101000 W
b100100 M
b100100 T
b100100 V
1!
#110
0!
#115
b1100100 )
b1100100 ]
b1100100 e
b10 7
b10 :
b10 ?
b1100100 (
b1100100 D
b1100100 \
b10000 *
b10000 Z
b10000 f
b0 8
b0 >
b0 A
13
11
15
00
b10000 d
b10000 X
b100011 @
b10001100000100000000000000000000 ,
b10001100000100000000000000000000 J
b10001100000100000000000000000000 U
b101100 I
b101100 S
b101100 L
b101100 N
b101100 Q
b101100 H
b101100 P
b101100 R
b101100 W
b101000 M
b101000 T
b101000 V
1!
#120
0!
#125
b1111 7
b1111 :
b1111 ?
b0 (
b0 D
b0 \
b0 )
b0 ]
b0 e
b0 *
b0 Z
b0 f
b10 8
b10 >
b10 A
03
01
05
10
b0 d
b0 X
b0 @
b0 ,
b0 J
b0 U
b110000 I
b110000 S
b110000 L
b110000 N
b110000 Q
b110000 H
b110000 P
b110000 R
b110000 W
b101100 M
b101100 T
b101100 V
b0 &
b0 C
b0 _
b0 b
1!
#130
0!
#135
bx00 %
bx00 K
bx00 O
bx00 i
bx +
bx 9
bx `
bx *
bx Z
bx f
b11 8
b11 >
b11 A
0/
00
bx =
bx &
bx C
bx _
bx b
bx d
bx '
bx ;
bx a
bx c
bx -
bx G
bx ^
bx h
bx F
bx Y
bx X
bx @
bx ,
bx J
bx U
b110100 I
b110100 S
bx L
bx N
bx Q
b110100 H
b110100 P
b110100 R
b110100 W
b110000 M
b110000 T
b110000 V
1!
#140
0!
#145
b111000 I
b111000 S
b111000 H
b111000 P
b111000 R
b111000 W
b110100 M
b110100 T
b110100 V
1!
#150
0!
#155
b111100 I
b111100 S
b111100 H
b111100 P
b111100 R
b111100 W
b111000 M
b111000 T
b111000 V
1!
#160
0!
#165
b1000000 I
b1000000 S
b1000000 H
b1000000 P
b1000000 R
b1000000 W
b111100 M
b111100 T
b111100 V
1!
#170
0!
#175
b1000100 I
b1000100 S
b1000100 H
b1000100 P
b1000100 R
b1000100 W
b1000000 M
b1000000 T
b1000000 V
1!
#180
0!
#185
b1001000 I
b1001000 S
b1001000 H
b1001000 P
b1001000 R
b1001000 W
b1000100 M
b1000100 T
b1000100 V
1!
#190
0!
#195
b1001100 I
b1001100 S
b1001100 H
b1001100 P
b1001100 R
b1001100 W
b1001000 M
b1001000 T
b1001000 V
1!
#200
0!
#205
b1010000 I
b1010000 S
b1010000 H
b1010000 P
b1010000 R
b1010000 W
b1001100 M
b1001100 T
b1001100 V
1!
#210
0!
#215
b1010100 I
b1010100 S
b1010100 H
b1010100 P
b1010100 R
b1010100 W
b1010000 M
b1010000 T
b1010000 V
1!
#220
0!
#225
b1011000 I
b1011000 S
b1011000 H
b1011000 P
b1011000 R
b1011000 W
b1010100 M
b1010100 T
b1010100 V
1!
#230
0!
#235
b1011100 I
b1011100 S
b1011100 H
b1011100 P
b1011100 R
b1011100 W
b1011000 M
b1011000 T
b1011000 V
1!
#240
0!
#245
b1100000 I
b1100000 S
b1100000 H
b1100000 P
b1100000 R
b1100000 W
b1011100 M
b1011100 T
b1011100 V
1!
#250
0!
#255
b1100100 I
b1100100 S
b1100100 H
b1100100 P
b1100100 R
b1100100 W
b1100000 M
b1100000 T
b1100000 V
1!
#260
0!
#265
b1101000 I
b1101000 S
b1101000 H
b1101000 P
b1101000 R
b1101000 W
b1100100 M
b1100100 T
b1100100 V
1!
#270
0!
#275
b1101100 I
b1101100 S
b1101100 H
b1101100 P
b1101100 R
b1101100 W
b1101000 M
b1101000 T
b1101000 V
1!
#280
0!
#285
b1110000 I
b1110000 S
b1110000 H
b1110000 P
b1110000 R
b1110000 W
b1101100 M
b1101100 T
b1101100 V
1!
#290
0!
#295
b1110100 I
b1110100 S
b1110100 H
b1110100 P
b1110100 R
b1110100 W
b1110000 M
b1110000 T
b1110000 V
1!
#300
0!
#305
b1111000 I
b1111000 S
b1111000 H
b1111000 P
b1111000 R
b1111000 W
b1110100 M
b1110100 T
b1110100 V
1!
#310
0!
#315
b1111100 I
b1111100 S
b1111100 H
b1111100 P
b1111100 R
b1111100 W
b1111000 M
b1111000 T
b1111000 V
1!
#320
0!
#325
b10000000 I
b10000000 S
b10000000 H
b10000000 P
b10000000 R
b10000000 W
b1111100 M
b1111100 T
b1111100 V
1!
#330
0!
#335
b10000100 I
b10000100 S
b10000100 H
b10000100 P
b10000100 R
b10000100 W
b10000000 M
b10000000 T
b10000000 V
1!
#340
0!
#345
b10001000 I
b10001000 S
b10001000 H
b10001000 P
b10001000 R
b10001000 W
b10000100 M
b10000100 T
b10000100 V
1!
#350
0!
#355
b10001100 I
b10001100 S
b10001100 H
b10001100 P
b10001100 R
b10001100 W
b10001000 M
b10001000 T
b10001000 V
1!
#360
0!
#365
b10010000 I
b10010000 S
b10010000 H
b10010000 P
b10010000 R
b10010000 W
b10001100 M
b10001100 T
b10001100 V
1!
#370
0!
#375
b10010100 I
b10010100 S
b10010100 H
b10010100 P
b10010100 R
b10010100 W
b10010000 M
b10010000 T
b10010000 V
1!
#380
0!
#385
b10011000 I
b10011000 S
b10011000 H
b10011000 P
b10011000 R
b10011000 W
b10010100 M
b10010100 T
b10010100 V
1!
#390
0!
#395
b10011100 I
b10011100 S
b10011100 H
b10011100 P
b10011100 R
b10011100 W
b10011000 M
b10011000 T
b10011000 V
1!
#400
0!
#405
b10100000 I
b10100000 S
b10100000 H
b10100000 P
b10100000 R
b10100000 W
b10011100 M
b10011100 T
b10011100 V
1!
#410
0!
#415
b10100100 I
b10100100 S
b10100100 H
b10100100 P
b10100100 R
b10100100 W
b10100000 M
b10100000 T
b10100000 V
1!
#420
0!
b1011 #
