AntonioFranciscoDosSantosReis/PipelineMips/tb.vcd
$date
	Thu Jan 23 11:16:08 2025
$end
$version
	Icarus Verilog
$end
$timescale
	1ns
$end
$scope module pipeline_tb $end
$var wire 32 ! instructionD [31:0] $end
$var wire 32 " PcPlus4D [31:0] $end
$var reg 32 # PcBranchD [31:0] $end
$var reg 1 $ PcSrcE $end
$var reg 1 % clk $end
$var reg 1 & reset $end
$scope module dut $end
$var wire 32 ' PcBranchD [31:0] $end
$var wire 1 $ PcSrcE $end
$var wire 1 % clk $end
$var wire 1 & reset $end
$var wire 32 ( instructionD [31:0] $end
$var wire 32 ) instF [31:0] $end
$var wire 32 * PcPlus4F [31:0] $end
$var wire 32 + PcPlus4D [31:0] $end
$var wire 32 , PC_ [31:0] $end
$var wire 32 - PCF [31:0] $end
$var reg 32 . PcPlus4F_reg [31:0] $end
$var reg 32 / instF_Reg [31:0] $end
$scope module Imem $end
$var wire 1 % clk $end
$var wire 32 0 instruction_out [31:0] $end
$var wire 1 & reset $end
$var wire 32 1 read_address [31:0] $end
$var integer 32 2 k [31:0] $end
$upscope $end
$scope module Program_counter $end
$var wire 1 % clk $end
$var wire 1 & reset $end
$var wire 32 3 pc_in [31:0] $end
$var reg 32 4 pc_out [31:0] $end
$upscope $end
$scope module m1 $end
$var wire 32 5 b [31:0] $end
$var wire 1 $ s $end
$var wire 32 6 c [31:0] $end
$var wire 32 7 a [31:0] $end
$upscope $end
$scope module pcplus4 $end
$var wire 32 8 pc_out [31:0] $end
$var wire 32 9 pc_outplus [31:0] $end
$upscope $end
$upscope $end
$upscope $end
$enddefinitions $end
$comment Show the parameter values. $end
$dumpall
$end
#0
$dumpvars
b100 9
b0 8
b100 7
b100 6
bx 5
b0 4
b100 3
b1000000 2
b0 1
b0 0
b0 /
b0 .
b0 -
b100 ,
b0 +
b100 *
b0 )
b0 (
bx '
1&
0%
0$
bx #
b0 "
b0 !
$end
#5
b1000 ,
b1000 3
b1000 6
b100 .
b1000 *
b1000 7
b1000 9
b10011100110100100000100000 )
b10011100110100100000100000 0
b100 -
b100 1
b100 4
b100 8
b1000 "
b1000 +
0&
1%
#10
0%
#15
b1100 ,
b1100 3
b1100 6
b1100 "
b1100 +
b10011100110100100000100000 !
b10011100110100100000100000 (
b1100 *
b1100 7
b1100 9
b1001010010100100000100000 )
b1001010010100100000100000 0
b1000 -
b1000 1
b1000 4
b1000 8
b1000 .
b10011100110100100000100000 /
1%
#20
0%
#25
b1001010010100100000100000 !
b1001010010100100000100000 (
b10000 ,
b10000 3
b10000 6
b10000 "
b10000 +
b1100 .
b1001010010100100000100000 /
b10000 *
b10000 7
b10000 9
b1001101100100100000100000 )
b1001101100100100000100000 0
b1100 -
b1100 1
b1100 4
b1100 8
1%
#30
0%
#35
b10100 ,
b10100 3
b10100 6
b10100 "
b10100 +
b1001101100100100000100000 !
b1001101100100100000100000 (
b10100 *
b10100 7
b10100 9
b10011100110100100000100000 )
b10011100110100100000100000 0
b10000 -
b10000 1
b10000 4
b10000 8
b10000 .
b1001101100100100000100000 /
1%
#40
0%
#45
b10011100110100100000100000 !
b10011100110100100000100000 (
b11000 ,
b11000 3
b11000 6
b11000 "
b11000 +
b10100 .
b10011100110100100000100000 /
b11000 *
b11000 7
b11000 9
b0 )
b0 0
b10100 -
b10100 1
b10100 4
b10100 8
1%
#50
0%
#55
b11100 ,
b11100 3
b11100 6
b11100 "
b11100 +
b0 !
b0 (
b11100 *
b11100 7
b11100 9
b11000 -
b11000 1
b11000 4
b11000 8
b11000 .
b0 /
1%
#60
0%
#65
b100000 ,
b100000 3
b100000 6
b100000 "
b100000 +
b11100 .
b100000 *
b100000 7
b100000 9
b11100 -
b11100 1
b11100 4
b11100 8
1%
#70
0%
#75
b100100 ,
b100100 3
b100100 6
b100100 "
b100100 +
b100100 *
b100100 7
b100100 9
b100000 -
b100000 1
b100000 4
b100000 8
b100000 .
1%
#80
0%
#85
b101000 ,
b101000 3
b101000 6
b101000 "
b101000 +
b100100 .
b101000 *
b101000 7
b101000 9
b100100 -
b100100 1
b100100 4
b100100 8
1%
#90
0%
#95
b101100 ,
b101100 3
b101100 6
b101100 "
b101100 +
b101100 *
b101100 7
b101100 9
b101000 -
b101000 1
b101000 4
b101000 8
b101000 .
1%
#100
0%
#105
b110000 ,
b110000 3
b110000 6
b110000 "
b110000 +
b101100 .
b110000 *
b110000 7
b110000 9
b101100 -
b101100 1
b101100 4
b101100 8
1%
#110
0%
#115
b110100 ,
b110100 3
b110100 6
b110100 "
b110100 +
b110100 *
b110100 7
b110100 9
b110000 -
b110000 1
b110000 4
b110000 8
b110000 .
1%
#120
0%
#125
b111000 ,
b111000 3
b111000 6
b111000 "
b111000 +
b110100 .
b111000 *
b111000 7
b111000 9
b110100 -
b110100 1
b110100 4
b110100 8
1%
#130
0%
#135
b111100 ,
b111100 3
b111100 6
b111100 "
b111100 +
b111100 *
b111100 7
b111100 9
b111000 -
b111000 1
b111000 4
b111000 8
b111000 .
1%
#140
0%
#145
b1000000 ,
b1000000 3
b1000000 6
b1000000 "
b1000000 +
b111100 .
b1000000 *
b1000000 7
b1000000 9
b111100 -
b111100 1
b111100 4
b111100 8
1%
#150
0%
#155
b1000100 ,
b1000100 3
b1000100 6
b1000100 "
b1000100 +
b1000100 *
b1000100 7
b1000100 9
bx )
bx 0
b1000000 -
b1000000 1
b1000000 4
b1000000 8
b1000000 .
1%
#160
0%
#165
bx !
bx (
b1001000 ,
b1001000 3
b1001000 6
b1001000 "
b1001000 +
b1000100 .
bx /
b1001000 *
b1001000 7
b1001000 9
b1000100 -
b1000100 1
b1000100 4
b1000100 8
1%
#170
0%
#175
b1001100 ,
b1001100 3
b1001100 6
b1001100 "
b1001100 +
b1001100 *
b1001100 7
b1001100 9
b1001000 -
b1001000 1
b1001000 4
b1001000 8
b1001000 .
1%
#180
0%
#185
b1010000 ,
b1010000 3
b1010000 6
b1010000 "
b1010000 +
b1001100 .
b1010000 *
b1010000 7
b1010000 9
b1001100 -
b1001100 1
b1001100 4
b1001100 8
1%
#190
0%
#195
b1010100 ,
b1010100 3
b1010100 6
b1010100 "
b1010100 +
b1010100 *
b1010100 7
b1010100 9
b1010000 -
b1010000 1
b1010000 4
b1010000 8
b1010000 .
1%
#200
0%
#205
b1011000 ,
b1011000 3
b1011000 6
b1011000 "
b1011000 +
b1010100 .
b1011000 *
b1011000 7
b1011000 9
b1010100 -
b1010100 1
b1010100 4
b1010100 8
1%
#210
0%
#215
b1011100 ,
b1011100 3
b1011100 6
b1011100 "
b1011100 +
b1011100 *
b1011100 7
b1011100 9
b1011000 -
b1011000 1
b1011000 4
b1011000 8
b1011000 .
1%
#220
0%
#225
b1100000 ,
b1100000 3
b1100000 6
b1100000 "
b1100000 +
b1011100 .
b1100000 *
b1100000 7
b1100000 9
b1011100 -
b1011100 1
b1011100 4
b1011100 8
1%
#230
0%
#235
b1100100 ,
b1100100 3
b1100100 6
b1100100 "
b1100100 +
b1100100 *
b1100100 7
b1100100 9
b1100000 -
b1100000 1
b1100000 4
b1100000 8
b1100000 .
1%
#240
0%
#245
b1101000 ,
b1101000 3
b1101000 6
b1101000 "
b1101000 +
b1100100 .
b1101000 *
b1101000 7
b1101000 9
b1100100 -
b1100100 1
b1100100 4
b1100100 8
1%
#250
0%
#255
b1101100 ,
b1101100 3
b1101100 6
b1101100 "
b1101100 +
b1101100 *
b1101100 7
b1101100 9
b1101000 -
b1101000 1
b1101000 4
b1101000 8
b1101000 .
1%
#260
0%
#265
b1110000 ,
b1110000 3
b1110000 6
b1110000 "
b1110000 +
b1101100 .
b1110000 *
b1110000 7
b1110000 9
b1101100 -
b1101100 1
b1101100 4
b1101100 8
1%
#270
0%
#275
b1110100 ,
b1110100 3
b1110100 6
b1110100 "
b1110100 +
b1110100 *
b1110100 7
b1110100 9
b1110000 -
b1110000 1
b1110000 4
b1110000 8
b1110000 .
1%
#280
0%
#285
b1111000 ,
b1111000 3
b1111000 6
b1111000 "
b1111000 +
b1110100 .
b1111000 *
b1111000 7
b1111000 9
b1110100 -
b1110100 1
b1110100 4
b1110100 8
1%
#290
0%
#295
b1111100 ,
b1111100 3
b1111100 6
b1111100 "
b1111100 +
b1111100 *
b1111100 7
b1111100 9
b1111000 -
b1111000 1
b1111000 4
b1111000 8
b1111000 .
1%
#300
0%
#305
b10000000 ,
b10000000 3
b10000000 6
b10000000 "
b10000000 +
b1111100 .
b10000000 *
b10000000 7
b10000000 9
b1111100 -
b1111100 1
b1111100 4
b1111100 8
1%
#310
0%
#315
b10000100 ,
b10000100 3
b10000100 6
b10000100 "
b10000100 +
b10000100 *
b10000100 7
b10000100 9
b10000000 -
b10000000 1
b10000000 4
b10000000 8
b10000000 .
1%
#320
0%
#325
b10001000 ,
b10001000 3
b10001000 6
b10001000 "
b10001000 +
b10000100 .
b10001000 *
b10001000 7
b10001000 9
b10000100 -
b10000100 1
b10000100 4
b10000100 8
1%
#330
0%
#335
b10001100 ,
b10001100 3
b10001100 6
b10001100 "
b10001100 +
b10001100 *
b10001100 7
b10001100 9
b10001000 -
b10001000 1
b10001000 4
b10001000 8
b10001000 .
1%
#340
0%
#345
b10010000 ,
b10010000 3
b10010000 6
b10010000 "
b10010000 +
b10001100 .
b10010000 *
b10010000 7
b10010000 9
b10001100 -
b10001100 1
b10001100 4
b10001100 8
1%
#350
0%
#355
b10010100 ,
b10010100 3
b10010100 6
b10010100 "
b10010100 +
b10010100 *
b10010100 7
b10010100 9
b10010000 -
b10010000 1
b10010000 4
b10010000 8
b10010000 .
1%
#360
0%
#365
b10011000 ,
b10011000 3
b10011000 6
b10011000 "
b10011000 +
b10010100 .
b10011000 *
b10011000 7
b10011000 9
b10010100 -
b10010100 1
b10010100 4
b10010100 8
1%
#370
0%
#375
b10011100 ,
b10011100 3
b10011100 6
b10011100 "
b10011100 +
b10011100 *
b10011100 7
b10011100 9
b10011000 -
b10011000 1
b10011000 4
b10011000 8
b10011000 .
1%
#380
0%
#385
b10100000 ,
b10100000 3
b10100000 6
b10100000 "
b10100000 +
b10011100 .
b10100000 *
b10100000 7
b10100000 9
b10011100 -
b10011100 1
b10011100 4
b10011100 8
1%
#390
0%
#395
b10100100 ,
b10100100 3
b10100100 6
b10100100 "
b10100100 +
b10100100 *
b10100100 7
b10100100 9
b10100000 -
b10100000 1
b10100000 4
b10100000 8
b10100000 .
1%
#400
0%
#405
b10101000 ,
b10101000 3
b10101000 6
b10101000 "
b10101000 +
b10100100 .
b10101000 *
b10101000 7
b10101000 9
b10100100 -
b10100100 1
b10100100 4
b10100100 8
1%
