JoséVictorDeJesus/Mips.vcd
$date
	Wed Apr  9 16:29:36 2025
$end
$version
	Icarus Verilog
$end
$timescale
	1s
$end
$scope module tb_Mips $end
$var wire 32 ! result [31:0] $end
$var reg 1 " clk $end
$var reg 1 # reset $end
$scope module mips_inst $end
$var wire 1 " clk $end
$var wire 1 # reset $end
$var wire 1 $ zero $end
$var wire 5 % writeRegister [4:0] $end
$var wire 32 & writeData [31:0] $end
$var wire 32 ' shiftleftout [31:0] $end
$var wire 32 ( resultsum [31:0] $end
$var wire 32 ) resultmux [31:0] $end
$var wire 32 * result [31:0] $end
$var wire 1 + regWrite $end
$var wire 1 , regDst $end
$var wire 32 - readData2 [31:0] $end
$var wire 32 . readData1 [31:0] $end
$var wire 32 / readData [31:0] $end
$var wire 32 0 pc_next_final [31:0] $end
$var wire 32 1 pc_next [31:0] $end
$var wire 32 2 pc_incrementado [31:0] $end
$var wire 32 3 pc [31:0] $end
$var wire 1 4 memtoReg $end
$var wire 1 5 memWrite $end
$var wire 1 6 memRead $end
$var wire 32 7 jump_address [31:0] $end
$var wire 1 8 jump $end
$var wire 32 9 instrucao [31:0] $end
$var wire 28 : endereco_jump [27:0] $end
$var wire 1 ; branch $end
$var wire 1 < aluScr $end
$var wire 32 = SignalExtendOut [31:0] $end
$var wire 4 > AluOperation [3:0] $end
$var wire 2 ? AluOp [1:0] $end
$scope module MemoriaData $end
$var wire 1 " clk $end
$var wire 32 @ writeData [31:0] $end
$var wire 32 A readData [31:0] $end
$var wire 32 B address [31:0] $end
$var wire 1 5 MemWrite $end
$var wire 1 6 MemRead $end
$var integer 32 C i [31:0] $end
$upscope $end
$scope module add $end
$var wire 32 D sum [31:0] $end
$var wire 32 E b [31:0] $end
$var wire 32 F a [31:0] $end
$upscope $end
$scope module alu $end
$var wire 1 $ Zero $end
$var wire 32 G B [31:0] $end
$var wire 4 H ALUOperation [3:0] $end
$var wire 32 I A [31:0] $end
$var reg 32 J ALUResult [31:0] $end
$upscope $end
$scope module banco_registradores $end
$var wire 32 K ReadData1 [31:0] $end
$var wire 32 L ReadData2 [31:0] $end
$var wire 5 M ReadRegister1 [4:0] $end
$var wire 5 N ReadRegister2 [4:0] $end
$var wire 5 O WriteRegister [4:0] $end
$var wire 32 P WriteData [31:0] $end
$var wire 1 + RegWrite $end
$var integer 32 Q i [31:0] $end
$upscope $end
$scope module controle_ALu $end
$var wire 6 R Funct [5:0] $end
$var wire 2 S ALUOp [1:0] $end
$var reg 4 T ALUoperation [3:0] $end
$upscope $end
$scope module mux2x1ALU $end
$var wire 32 U A [31:0] $end
$var wire 1 < sel $end
$var wire 32 V out [31:0] $end
$var wire 32 W B [31:0] $end
$var parameter 32 X WIDTH $end
$upscope $end
$scope module mux2x1DataMemory $end
$var wire 32 Y A [31:0] $end
$var wire 32 Z B [31:0] $end
$var wire 1 4 sel $end
$var wire 32 [ out [31:0] $end
$var parameter 32 \ WIDTH $end
$upscope $end
$scope module mux2x1Jump $end
$var wire 32 ] B [31:0] $end
$var wire 1 8 sel $end
$var wire 32 ^ out [31:0] $end
$var wire 32 _ A [31:0] $end
$var parameter 32 ` WIDTH $end
$upscope $end
$scope module mux2x1ProxEndereco $end
$var wire 32 a B [31:0] $end
$var wire 1 b sel $end
$var wire 32 c out [31:0] $end
$var wire 32 d A [31:0] $end
$var parameter 32 e WIDTH $end
$upscope $end
$scope module mux2x1Reg $end
$var wire 5 f A [4:0] $end
$var wire 5 g B [4:0] $end
$var wire 1 , sel $end
$var wire 5 h out [4:0] $end
$var parameter 32 i WIDTH $end
$upscope $end
$scope module shiftjump $end
$var wire 26 j in [25:0] $end
$var wire 28 k out [27:0] $end
$upscope $end
$scope module shiftleft $end
$var wire 32 l out [31:0] $end
$var wire 32 m in [31:0] $end
$upscope $end
$scope module signalExt $end
$var wire 16 n in [15:0] $end
$var wire 32 o out [31:0] $end
$upscope $end
$scope module unidadeControle $end
$var wire 6 p instrucao [5:0] $end
$var reg 2 q AluOp [1:0] $end
$var reg 1 < AluSCR $end
$var reg 1 ; Branch $end
$var reg 1 8 Jump $end
$var reg 1 6 MemRead $end
$var reg 1 5 MemWrite $end
$var reg 1 4 MemtoReg $end
$var reg 1 , RegDst $end
$var reg 1 + RegWrite $end
$upscope $end
$scope module unidade_Busca $end
$var wire 1 " clk $end
$var wire 32 r pc_next [31:0] $end
$var wire 1 # reset $end
$var wire 32 s pc_incrementado [31:0] $end
$var wire 32 t instrucao [31:0] $end
$var reg 32 u pc [31:0] $end
$scope module memoria $end
$var wire 32 v addr [31:0] $end
$var wire 32 w instrucao [31:0] $end
$upscope $end
$scope module somador $end
$var wire 32 x in [31:0] $end
$var wire 32 y out [31:0] $end
$upscope $end
$upscope $end
$upscope $end
$upscope $end
$enddefinitions $end
$comment Show the parameter values. $end
$dumpall
b101 i
b100000 e
b100000 `
b100000 \
b100000 X
$end
#0
$dumpvars
bx y
bx x
bx w
bx v
bx u
bx t
bx s
bx r
bx q
bx p
bx o
bx n
bx m
bx00 l
bx00 k
bx j
bx h
bx g
bx f
bx d
bx c
xb
bx a
bx _
bx ^
bx00 ]
bx [
bx Z
bx Y
bx W
bx V
bx U
bx T
bx S
bx R
b100000 Q
bx P
bx O
bx N
bx M
bx L
bx K
bx J
bx I
bx H
bx G
bx F
bx00 E
bx D
b100000000 C
bx B
bx A
bx @
bx ?
bx >
bx =
x<
x;
bx00 :
bx 9
x8
bx00 7
x6
x5
x4
bx 3
bx 2
bx 1
bx 0
bx /
bx .
bx -
x,
x+
bx *
bx )
bx (
bx00 '
bx &
bx %
x$
0#
0"
bx !
$end
#10
1"
#20
0"
#30
1"
#40
0"
#50
1"
#60
0"
#70
b100 0
b100 ^
b100 r
b100 1
b100 _
b100 c
b1000 (
b1000 D
b1000 a
0$
0b
b1 &
b1 P
b1 [
b0 /
b0 A
b0 Z
b1000000000000000000100 :
b1000000000000000000100 k
b1000 %
b1000 O
b1000 h
b100 '
b100 E
b100 l
b10 >
b10 H
b10 T
b1 )
b1 G
b1 V
b1 !
b1 *
b1 B
b1 J
b1 Y
b0 ?
b0 S
b0 q
08
0;
04
05
06
0,
1<
1+
b10000000000000000001 j
b0 g
b1000 f
b1 =
b1 W
b1 m
b1 o
b1 n
b1 R
b1 -
b1 @
b1 L
b1 U
b1000 N
b0 .
b0 I
b0 K
b0 M
b1000 p
b100000000010000000000000000001 9
b100000000010000000000000000001 t
b100000000010000000000000000001 w
b1000000000000000000100 7
b1000000000000000000100 ]
b100 2
b100 F
b100 d
b100 s
b100 y
b0 3
b0 u
b0 v
b0 x
1"
1#
#80
0"
#90
1"
#100
0"
#110
1"
#120
0"
#130
1"
#140
0"
#150
b110 &
b110 P
b110 [
b110 !
b110 *
b110 B
b110 J
b110 Y
b1001000000000000011000 7
b1001000000000000011000 ]
b1001000000000000011000 :
b1001000000000000011000 k
b1001 %
b1001 O
b1001 h
b11000 '
b11000 E
b11000 l
b110 )
b110 G
b110 V
b10010000000000000110 j
b1001 f
b110 =
b110 W
b110 m
b110 o
b110 n
b110 R
b110 -
b110 @
b110 L
b110 U
b1001 N
b1000 0
b1000 ^
b1000 r
b100000000010010000000000000110 9
b100000000010010000000000000110 t
b100000000010010000000000000110 w
b1000 1
b1000 _
b1000 c
b100000 (
b100000 D
b100000 a
b1000 2
b1000 F
b1000 d
b1000 s
b1000 y
b100 3
b100 u
b100 v
b100 x
1"
0#
#160
0"
#170
b11111111111111111111111111111011 &
b11111111111111111111111111111011 P
b11111111111111111111111111111011 [
b100001001000000000000001100 7
b100001001000000000000001100 ]
b100001001000000000000001100 :
b100001001000000000000001100 k
b1100 '
b1100 E
b1100 l
b110 >
b110 H
b110 T
b11111111111111111111111111111011 !
b11111111111111111111111111111011 *
b11111111111111111111111111111011 B
b11111111111111111111111111111011 J
b11111111111111111111111111111011 Y
b1 ?
b1 S
b1 q
1;
0<
0+
b1000010010000000000000011 j
b11 =
b11 W
b11 m
b11 o
b11 n
b11 R
b1 .
b1 I
b1 K
b1000 M
b100 p
b1100 0
b1100 ^
b1100 r
b10001000010010000000000000011 9
b10001000010010000000000000011 t
b10001000010010000000000000011 w
b1100 1
b1100 _
b1100 c
b11000 (
b11000 D
b11000 a
b1100 2
b1100 F
b1100 d
b1100 s
b1100 y
b1000 3
b1000 u
b1000 v
b1000 x
1"
#180
0"
#190
b111 &
b111 P
b111 [
b111 !
b111 *
b111 B
b111 J
b111 Y
b100001001010000000000001000 7
b100001001010000000000001000 ]
b100001001010000000000001000 :
b100001001010000000000001000 k
b10000000000001000 '
b10000000000001000 E
b10000000000001000 l
b10 >
b10 H
b10 T
b0 ?
b0 S
b0 q
0;
b1000010010100000000000010 j
b1000 g
b100000000000010 =
b100000000000010 W
b100000000000010 m
b100000000000010 o
b100000000000010 n
b10 R
b11100 p
b10000 0
b10000 ^
b10000 r
b1110001000010010100000000000010 9
b1110001000010010100000000000010 t
b1110001000010010100000000000010 w
b10000 1
b10000 _
b10000 c
b10000000000011000 (
b10000000000011000 D
b10000000000011000 a
b10000 2
b10000 F
b10000 d
b10000 s
b10000 y
b1100 3
b1100 u
b1100 v
b1100 x
1"
#200
0"
#210
b110 &
b110 P
b110 [
b100100000010010000010001000 7
b100100000010010000010001000 ]
b100100000010010000010001000 :
b100100000010010000010001000 k
b10010000010001000 '
b10010000010001000 E
b10010000010001000 l
b110 >
b110 H
b110 T
b0 )
b0 G
b0 V
b110 !
b110 *
b110 B
b110 J
b110 Y
b10 ?
b10 S
b10 q
1+
1,
b1001000000100100000100010 j
b1001 g
b0 f
b100100000100010 =
b100100000100010 W
b100100000100010 m
b100100000100010 o
b100100000100010 n
b100010 R
b0 -
b0 @
b0 L
b0 U
b0 N
b110 .
b110 I
b110 K
b1001 M
b0 p
b10100 0
b10100 ^
b10100 r
b1001000000100100000100010 9
b1001000000100100000100010 t
b1001000000100100000100010 w
b10100 1
b10100 _
b10100 c
b10010000010011100 (
b10010000010011100 D
b10010000010011100 a
b10100 2
b10100 F
b10100 d
b10100 s
b10100 y
b10000 3
b10000 u
b10000 v
b10000 x
1"
#220
0"
#230
b100100000111111111111110000 7
b100100000111111111111110000 ]
b100100000111111111111110000 :
b100100000111111111111110000 k
b0 %
b0 O
b0 h
b11111111111111111111111111110000 '
b11111111111111111111111111110000 E
b11111111111111111111111111110000 l
1;
b1 ?
b1 S
b1 q
0,
0+
b1001000001111111111111100 j
b11111 g
b11111111111111111111111111111100 =
b11111111111111111111111111111100 W
b11111111111111111111111111111100 m
b11111111111111111111111111111100 o
b1111111111111100 n
b111100 R
b111 p
b11000 0
b11000 ^
b11000 r
b11101001000001111111111111100 9
b11101001000001111111111111100 t
b11101001000001111111111111100 w
b11000 1
b11000 _
b11000 c
b1000 (
b1000 D
b1000 a
b11000 2
b11000 F
b11000 d
b11000 s
b11000 y
b10100 3
b10100 u
b10100 v
b10100 x
1"
#240
0"
#250
1$
b0 &
b0 P
b0 [
b10000000000000000100 7
b10000000000000000100 ]
b10000000000000000100 :
b10000000000000000100 k
b10 %
b10 O
b10 h
b100 '
b100 E
b100 l
b10 >
b10 H
b10 T
b0 !
b0 *
b0 B
b0 J
b0 Y
b0 ?
b0 S
b0 q
0;
b100000000000000001 j
b0 g
b10 f
b1 =
b1 W
b1 m
b1 o
b1 n
b1 R
b10 N
b0 .
b0 I
b0 K
b0 M
b1001 p
b11100 0
b11100 ^
b11100 r
b100100000000100000000000000001 9
b100100000000100000000000000001 t
b100100000000100000000000000001 w
b11100 1
b11100 _
b11100 c
b100000 (
b100000 D
b100000 a
b11100 2
b11100 F
b11100 d
b11100 s
b11100 y
b11000 3
b11000 u
b11000 v
b11000 x
1"
#260
0"
#270
b1000001000000010000100 7
b1000001000000010000100 ]
b1000001000000010000100 :
b1000001000000010000100 k
b100 %
b100 O
b100 h
b1000000010000100 '
b1000000010000100 E
b1000000010000100 l
b0 >
b0 H
b0 T
b1 )
b1 G
b1 V
b10 ?
b10 S
b10 q
1+
1,
b10000010000000100001 j
b100 g
b1000 f
b10000000100001 =
b10000000100001 W
b10000000100001 m
b10000000100001 o
b10000000100001 n
b100001 R
b1 -
b1 @
b1 L
b1 U
b1000 N
b0 p
b100000 0
b100000 ^
b100000 r
b10000010000000100001 9
b10000010000000100001 t
b10000010000000100001 w
b100000 1
b100000 _
b100000 c
b1000000010100100 (
b1000000010100100 D
b1000000010100100 a
b100000 2
b100000 F
b100000 d
b100000 s
b100000 y
b11100 3
b11100 u
b11100 v
b11100 x
1"
#280
0"
#290
b110000 7
b110000 ]
b110000 :
b110000 k
b0 %
b0 O
b0 h
b110000 '
b110000 E
b110000 l
b0 )
b0 G
b0 V
b1100 j
b0 g
b0 f
b1100 =
b1100 W
b1100 m
b1100 o
b1100 n
b1100 R
b0 -
b0 @
b0 L
b0 U
b0 N
b100100 0
b100100 ^
b100100 r
b1100 9
b1100 t
b1100 w
b100100 1
b100100 _
b100100 c
b1010100 (
b1010100 D
b1010100 a
b100100 2
b100100 F
b100100 d
b100100 s
b100100 y
b100000 3
b100000 u
b100000 v
b100000 x
1"
#300
0"
#310
x$
bx &
bx P
bx [
bx !
bx *
bx B
bx J
bx Y
b0xxxxxxxxxxxxxxxxxxxxxxxxxx00 7
b0xxxxxxxxxxxxxxxxxxxxxxxxxx00 ]
bx00 :
bx00 k
bx %
bx O
bx h
bx00 '
bx00 E
bx00 l
b10 >
b10 H
b10 T
bx )
bx G
bx V
b0 ?
b0 S
b0 q
0,
0+
bx j
bx g
bx f
bx =
bx W
bx m
bx o
bx n
bx R
bx -
bx @
bx L
bx U
bx N
bx .
bx I
bx K
bx M
bx p
b101000 0
b101000 ^
b101000 r
bx 9
bx t
bx w
b101000 1
b101000 _
b101000 c
bx (
bx D
bx a
b101000 2
b101000 F
b101000 d
b101000 s
b101000 y
b100100 3
b100100 u
b100100 v
b100100 x
1"
#320
0"
#330
b101100 0
b101100 ^
b101100 r
b101100 1
b101100 _
b101100 c
b101100 2
b101100 F
b101100 d
b101100 s
b101100 y
b101000 3
b101000 u
b101000 v
b101000 x
1"
#340
0"
#350
b110000 0
b110000 ^
b110000 r
b110000 1
b110000 _
b110000 c
b110000 2
b110000 F
b110000 d
b110000 s
b110000 y
b101100 3
b101100 u
b101100 v
b101100 x
1"
#360
0"
#370
b110100 0
b110100 ^
b110100 r
b110100 1
b110100 _
b110100 c
b110100 2
b110100 F
b110100 d
b110100 s
b110100 y
b110000 3
b110000 u
b110000 v
b110000 x
1"
#380
0"
#390
b111000 0
b111000 ^
b111000 r
b111000 1
b111000 _
b111000 c
b111000 2
b111000 F
b111000 d
b111000 s
b111000 y
b110100 3
b110100 u
b110100 v
b110100 x
1"
#400
0"
#410
b111100 0
b111100 ^
b111100 r
b111100 1
b111100 _
b111100 c
b111100 2
b111100 F
b111100 d
b111100 s
b111100 y
b111000 3
b111000 u
b111000 v
b111000 x
1"
#420
0"
#430
b1000000 0
b1000000 ^
b1000000 r
b1000000 1
b1000000 _
b1000000 c
b1000000 2
b1000000 F
b1000000 d
b1000000 s
b1000000 y
b111100 3
b111100 u
b111100 v
b111100 x
1"
#440
0"
#450
b1000100 0
b1000100 ^
b1000100 r
b1000100 1
b1000100 _
b1000100 c
b1000100 2
b1000100 F
b1000100 d
b1000100 s
b1000100 y
b1000000 3
b1000000 u
b1000000 v
b1000000 x
1"
#460
0"
#470
b1001000 0
b1001000 ^
b1001000 r
b1001000 1
b1001000 _
b1001000 c
b1001000 2
b1001000 F
b1001000 d
b1001000 s
b1001000 y
b1000100 3
b1000100 u
b1000100 v
b1000100 x
1"
#480
0"
#490
b1001100 0
b1001100 ^
b1001100 r
b1001100 1
b1001100 _
b1001100 c
b1001100 2
b1001100 F
b1001100 d
b1001100 s
b1001100 y
b1001000 3
b1001000 u
b1001000 v
b1001000 x
1"
#500
0"
#510
b1010000 0
b1010000 ^
b1010000 r
b1010000 1
b1010000 _
b1010000 c
b1010000 2
b1010000 F
b1010000 d
b1010000 s
b1010000 y
b1001100 3
b1001100 u
b1001100 v
b1001100 x
1"
#520
0"
#530
b1010100 0
b1010100 ^
b1010100 r
b1010100 1
b1010100 _
b1010100 c
b1010100 2
b1010100 F
b1010100 d
b1010100 s
b1010100 y
b1010000 3
b1010000 u
b1010000 v
b1010000 x
1"
#540
0"
#550
b1011000 0
b1011000 ^
b1011000 r
b1011000 1
b1011000 _
b1011000 c
b1011000 2
b1011000 F
b1011000 d
b1011000 s
b1011000 y
b1010100 3
b1010100 u
b1010100 v
b1010100 x
1"
#560
0"
#570
b1011100 0
b1011100 ^
b1011100 r
b1011100 1
b1011100 _
b1011100 c
b1011100 2
b1011100 F
b1011100 d
b1011100 s
b1011100 y
b1011000 3
b1011000 u
b1011000 v
b1011000 x
1"
#580
0"
#590
b1100000 0
b1100000 ^
b1100000 r
b1100000 1
b1100000 _
b1100000 c
b1100000 2
b1100000 F
b1100000 d
b1100000 s
b1100000 y
b1011100 3
b1011100 u
b1011100 v
b1011100 x
1"
#600
0"
#610
b1100100 0
b1100100 ^
b1100100 r
b1100100 1
b1100100 _
b1100100 c
b1100100 2
b1100100 F
b1100100 d
b1100100 s
b1100100 y
b1100000 3
b1100000 u
b1100000 v
b1100000 x
1"
#620
0"
#630
b1101000 0
b1101000 ^
b1101000 r
b1101000 1
b1101000 _
b1101000 c
b1101000 2
b1101000 F
b1101000 d
b1101000 s
b1101000 y
b1100100 3
b1100100 u
b1100100 v
b1100100 x
1"
#640
0"
#650
b1101100 0
b1101100 ^
b1101100 r
b1101100 1
b1101100 _
b1101100 c
b1101100 2
b1101100 F
b1101100 d
b1101100 s
b1101100 y
b1101000 3
b1101000 u
b1101000 v
b1101000 x
1"
#660
0"
#670
b1110000 0
b1110000 ^
b1110000 r
b1110000 1
b1110000 _
b1110000 c
b1110000 2
b1110000 F
b1110000 d
b1110000 s
b1110000 y
b1101100 3
b1101100 u
b1101100 v
b1101100 x
1"
#680
0"
#690
b1110100 0
b1110100 ^
b1110100 r
b1110100 1
b1110100 _
b1110100 c
b1110100 2
b1110100 F
b1110100 d
b1110100 s
b1110100 y
b1110000 3
b1110000 u
b1110000 v
b1110000 x
1"
#700
0"
#710
b1111000 0
b1111000 ^
b1111000 r
b1111000 1
b1111000 _
b1111000 c
b1111000 2
b1111000 F
b1111000 d
b1111000 s
b1111000 y
b1110100 3
b1110100 u
b1110100 v
b1110100 x
1"
#720
0"
#730
b1111100 0
b1111100 ^
b1111100 r
b1111100 1
b1111100 _
b1111100 c
b1111100 2
b1111100 F
b1111100 d
b1111100 s
b1111100 y
b1111000 3
b1111000 u
b1111000 v
b1111000 x
1"
#740
0"
#750
b10000000 0
b10000000 ^
b10000000 r
b10000000 1
b10000000 _
b10000000 c
b10000000 2
b10000000 F
b10000000 d
b10000000 s
b10000000 y
b1111100 3
b1111100 u
b1111100 v
b1111100 x
1"
#760
0"
#770
b10000100 0
b10000100 ^
b10000100 r
b10000100 1
b10000100 _
b10000100 c
b10000100 2
b10000100 F
b10000100 d
b10000100 s
b10000100 y
b10000000 3
b10000000 u
b10000000 v
b10000000 x
1"
#780
0"
#790
b10001000 0
b10001000 ^
b10001000 r
b10001000 1
b10001000 _
b10001000 c
b10001000 2
b10001000 F
b10001000 d
b10001000 s
b10001000 y
b10000100 3
b10000100 u
b10000100 v
b10000100 x
1"
#800
0"
#810
b10001100 0
b10001100 ^
b10001100 r
b10001100 1
b10001100 _
b10001100 c
b10001100 2
b10001100 F
b10001100 d
b10001100 s
b10001100 y
b10001000 3
b10001000 u
b10001000 v
b10001000 x
1"
#820
0"
#830
b10010000 0
b10010000 ^
b10010000 r
b10010000 1
b10010000 _
b10010000 c
b10010000 2
b10010000 F
b10010000 d
b10010000 s
b10010000 y
b10001100 3
b10001100 u
b10001100 v
b10001100 x
1"
#840
0"
#850
b10010100 0
b10010100 ^
b10010100 r
b10010100 1
b10010100 _
b10010100 c
b10010100 2
b10010100 F
b10010100 d
b10010100 s
b10010100 y
b10010000 3
b10010000 u
b10010000 v
b10010000 x
1"
#860
0"
#870
b10011000 0
b10011000 ^
b10011000 r
b10011000 1
b10011000 _
b10011000 c
b10011000 2
b10011000 F
b10011000 d
b10011000 s
b10011000 y
b10010100 3
b10010100 u
b10010100 v
b10010100 x
1"
#880
0"
#890
b10011100 0
b10011100 ^
b10011100 r
b10011100 1
b10011100 _
b10011100 c
b10011100 2
b10011100 F
b10011100 d
b10011100 s
b10011100 y
b10011000 3
b10011000 u
b10011000 v
b10011000 x
1"
#900
0"
#910
b10100000 0
b10100000 ^
b10100000 r
b10100000 1
b10100000 _
b10100000 c
b10100000 2
b10100000 F
b10100000 d
b10100000 s
b10100000 y
b10011100 3
b10011100 u
b10011100 v
b10011100 x
1"
#920
0"
#930
b10100100 0
b10100100 ^
b10100100 r
b10100100 1
b10100100 _
b10100100 c
b10100100 2
b10100100 F
b10100100 d
b10100100 s
b10100100 y
b10100000 3
b10100000 u
b10100000 v
b10100000 x
1"
#940
0"
#950
b10101000 0
b10101000 ^
b10101000 r
b10101000 1
b10101000 _
b10101000 c
b10101000 2
b10101000 F
b10101000 d
b10101000 s
b10101000 y
b10100100 3
b10100100 u
b10100100 v
b10100100 x
1"
#960
0"
#970
b10101100 0
b10101100 ^
b10101100 r
b10101100 1
b10101100 _
b10101100 c
b10101100 2
b10101100 F
b10101100 d
b10101100 s
b10101100 y
b10101000 3
b10101000 u
b10101000 v
b10101000 x
1"
#980
0"
#990
b10110000 0
b10110000 ^
b10110000 r
b10110000 1
b10110000 _
b10110000 c
b10110000 2
b10110000 F
b10110000 d
b10110000 s
b10110000 y
b10101100 3
b10101100 u
b10101100 v
b10101100 x
1"
#1000
0"
#1010
b10110100 0
b10110100 ^
b10110100 r
b10110100 1
b10110100 _
b10110100 c
b10110100 2
b10110100 F
b10110100 d
b10110100 s
b10110100 y
b10110000 3
b10110000 u
b10110000 v
b10110000 x
1"
#1020
0"
#1030
b10111000 0
b10111000 ^
b10111000 r
b10111000 1
b10111000 _
b10111000 c
b10111000 2
b10111000 F
b10111000 d
b10111000 s
b10111000 y
b10110100 3
b10110100 u
b10110100 v
b10110100 x
1"
#1040
0"
#1050
b10111100 0
b10111100 ^
b10111100 r
b10111100 1
b10111100 _
b10111100 c
b10111100 2
b10111100 F
b10111100 d
b10111100 s
b10111100 y
b10111000 3
b10111000 u
b10111000 v
b10111000 x
1"
#1060
0"
#1070
b11000000 0
b11000000 ^
b11000000 r
b11000000 1
b11000000 _
b11000000 c
b11000000 2
b11000000 F
b11000000 d
b11000000 s
b11000000 y
b10111100 3
b10111100 u
b10111100 v
b10111100 x
1"
#1080
0"
#1090
b11000100 0
b11000100 ^
b11000100 r
b11000100 1
b11000100 _
b11000100 c
b11000100 2
b11000100 F
b11000100 d
b11000100 s
b11000100 y
b11000000 3
b11000000 u
b11000000 v
b11000000 x
1"
#1100
0"
#1110
b11001000 0
b11001000 ^
b11001000 r
b11001000 1
b11001000 _
b11001000 c
b11001000 2
b11001000 F
b11001000 d
b11001000 s
b11001000 y
b11000100 3
b11000100 u
b11000100 v
b11000100 x
1"
#1120
0"
#1130
b11001100 0
b11001100 ^
b11001100 r
b11001100 1
b11001100 _
b11001100 c
b11001100 2
b11001100 F
b11001100 d
b11001100 s
b11001100 y
b11001000 3
b11001000 u
b11001000 v
b11001000 x
1"
#1140
0"
#1150
b11010000 0
b11010000 ^
b11010000 r
b11010000 1
b11010000 _
b11010000 c
b11010000 2
b11010000 F
b11010000 d
b11010000 s
b11010000 y
b11001100 3
b11001100 u
b11001100 v
b11001100 x
1"
#1160
0"
#1170
b11010100 0
b11010100 ^
b11010100 r
b11010100 1
b11010100 _
b11010100 c
b11010100 2
b11010100 F
b11010100 d
b11010100 s
b11010100 y
b11010000 3
b11010000 u
b11010000 v
b11010000 x
1"
#1180
0"
#1190
b11011000 0
b11011000 ^
b11011000 r
b11011000 1
b11011000 _
b11011000 c
b11011000 2
b11011000 F
b11011000 d
b11011000 s
b11011000 y
b11010100 3
b11010100 u
b11010100 v
b11010100 x
1"
#1200
0"
#1210
b11011100 0
b11011100 ^
b11011100 r
b11011100 1
b11011100 _
b11011100 c
b11011100 2
b11011100 F
b11011100 d
b11011100 s
b11011100 y
b11011000 3
b11011000 u
b11011000 v
b11011000 x
1"
#1220
0"
#1230
b11100000 0
b11100000 ^
b11100000 r
b11100000 1
b11100000 _
b11100000 c
b11100000 2
b11100000 F
b11100000 d
b11100000 s
b11100000 y
b11011100 3
b11011100 u
b11011100 v
b11011100 x
1"
#1240
0"
#1250
b11100100 0
b11100100 ^
b11100100 r
b11100100 1
b11100100 _
b11100100 c
b11100100 2
b11100100 F
b11100100 d
b11100100 s
b11100100 y
b11100000 3
b11100000 u
b11100000 v
b11100000 x
1"
#1260
0"
#1270
b11101000 0
b11101000 ^
b11101000 r
b11101000 1
b11101000 _
b11101000 c
b11101000 2
b11101000 F
b11101000 d
b11101000 s
b11101000 y
b11100100 3
b11100100 u
b11100100 v
b11100100 x
1"
#1280
0"
#1290
b11101100 0
b11101100 ^
b11101100 r
b11101100 1
b11101100 _
b11101100 c
b11101100 2
b11101100 F
b11101100 d
b11101100 s
b11101100 y
b11101000 3
b11101000 u
b11101000 v
b11101000 x
1"
#1300
0"
#1310
b11110000 0
b11110000 ^
b11110000 r
b11110000 1
b11110000 _
b11110000 c
b11110000 2
b11110000 F
b11110000 d
b11110000 s
b11110000 y
b11101100 3
b11101100 u
b11101100 v
b11101100 x
1"
#1320
0"
#1330
b11110100 0
b11110100 ^
b11110100 r
b11110100 1
b11110100 _
b11110100 c
b11110100 2
b11110100 F
b11110100 d
b11110100 s
b11110100 y
b11110000 3
b11110000 u
b11110000 v
b11110000 x
1"
#1340
0"
#1350
b11111000 0
b11111000 ^
b11111000 r
b11111000 1
b11111000 _
b11111000 c
b11111000 2
b11111000 F
b11111000 d
b11111000 s
b11111000 y
b11110100 3
b11110100 u
b11110100 v
b11110100 x
1"
