JuliaValverde/ProcessadorMIPS.vcd
$date
	Wed Apr  9 16:35:26 2025
$end
$version
	Icarus Verilog
$end
$timescale
	1ns
$end
$scope module Simulacao $end
$var reg 1 ! clk $end
$var reg 1 " reset $end
$scope module mips $end
$var wire 1 # and_result $end
$var wire 1 ! clk $end
$var wire 1 " rst $end
$var wire 1 $ zero $end
$var wire 32 % write_data [31:0] $end
$var wire 32 & shift_left_out [31:0] $end
$var wire 1 ' reg_write $end
$var wire 1 ( reg_dst $end
$var wire 32 ) read_data2 [31:0] $end
$var wire 32 * read_data1 [31:0] $end
$var wire 32 + read_data [31:0] $end
$var wire 32 , pc_incrementado [31:0] $end
$var wire 32 - out_sign_extend [31:0] $end
$var wire 5 . mux_reg_result [4:0] $end
$var wire 32 / mux_jump_result [31:0] $end
$var wire 32 0 mux_and_result [31:0] $end
$var wire 32 1 mux_ALU_result [31:0] $end
$var wire 1 2 memto_reg $end
$var wire 1 3 mem_write $end
$var wire 1 4 mem_read $end
$var wire 32 5 jump_address [31:0] $end
$var wire 1 6 jump $end
$var wire 32 7 instruction [31:0] $end
$var wire 1 8 branch $end
$var wire 32 9 adder32_result [31:0] $end
$var wire 1 : ALU_src $end
$var wire 32 ; ALU_result [31:0] $end
$var wire 2 < ALU_op [1:0] $end
$var wire 4 = ALU_control_input [3:0] $end
$var reg 32 > pc [31:0] $end
$scope module ALU_control $end
$var wire 6 ? FunctField [5:0] $end
$var wire 2 @ ALUOp [1:0] $end
$var reg 4 A ALUControl_Input [3:0] $end
$upscope $end
$scope module add4 $end
$var wire 32 B in [31:0] $end
$var wire 32 C out [31:0] $end
$upscope $end
$scope module adder32 $end
$var wire 32 D a [31:0] $end
$var wire 32 E sum [31:0] $end
$var wire 32 F b [31:0] $end
$upscope $end
$scope module alu $end
$var wire 4 G ALUOperation [3:0] $end
$var wire 1 $ Zero $end
$var wire 32 H B [31:0] $end
$var wire 32 I A [31:0] $end
$var reg 32 J ALUResult [31:0] $end
$upscope $end
$scope module control_unit $end
$var wire 6 K Op [5:0] $end
$var reg 2 L ALUOp [1:0] $end
$var reg 1 : ALUSrc $end
$var reg 1 8 Branch $end
$var reg 1 6 Jump $end
$var reg 1 4 MemRead $end
$var reg 1 3 MemWrite $end
$var reg 1 2 MemtoReg $end
$var reg 1 ( RegDst $end
$var reg 1 ' RegWrite $end
$upscope $end
$scope module data_memory $end
$var wire 1 4 MemRead $end
$var wire 1 3 MemWrite $end
$var wire 32 M address [31:0] $end
$var wire 1 ! clk $end
$var wire 32 N writeData [31:0] $end
$var wire 32 O readData [31:0] $end
$var integer 32 P i [31:0] $end
$upscope $end
$scope module jac $end
$var wire 4 Q PCPlus4 [3:0] $end
$var wire 26 R instruction [25:0] $end
$var wire 32 S JumpAddress [31:0] $end
$upscope $end
$scope module memoria $end
$var wire 32 T addr [31:0] $end
$var wire 32 U instrucao [31:0] $end
$upscope $end
$scope module mux_ALU $end
$var wire 1 : sel $end
$var wire 32 V B [31:0] $end
$var wire 32 W A [31:0] $end
$var reg 32 X MUX_32b_Result [31:0] $end
$upscope $end
$scope module mux_and $end
$var wire 32 Y A [31:0] $end
$var wire 32 Z B [31:0] $end
$var wire 1 # sel $end
$var reg 32 [ MUX_32b_Result [31:0] $end
$upscope $end
$scope module mux_data $end
$var wire 32 \ A [31:0] $end
$var wire 32 ] B [31:0] $end
$var wire 1 2 sel $end
$var reg 32 ^ MUX_32b_Result [31:0] $end
$upscope $end
$scope module mux_jump $end
$var wire 32 _ A [31:0] $end
$var wire 32 ` B [31:0] $end
$var wire 1 6 sel $end
$var reg 32 a MUX_32b_Result [31:0] $end
$upscope $end
$scope module mux_reg $end
$var wire 5 b A [4:0] $end
$var wire 5 c B [4:0] $end
$var wire 1 ( sel $end
$var reg 5 d MUX_5b_Result [4:0] $end
$upscope $end
$scope module registradores $end
$var wire 32 e ReadData1 [31:0] $end
$var wire 32 f ReadData2 [31:0] $end
$var wire 5 g ReadRegister1 [4:0] $end
$var wire 5 h ReadRegister2 [4:0] $end
$var wire 1 ' RegWrite $end
$var wire 32 i WriteData [31:0] $end
$var wire 5 j WriteRegister [4:0] $end
$var wire 1 ! clk $end
$var integer 32 k i [31:0] $end
$upscope $end
$scope module shift_left $end
$var wire 32 l out [31:0] $end
$var wire 32 m in [31:0] $end
$upscope $end
$scope module sign_extend $end
$var wire 16 n in [15:0] $end
$var wire 32 o out [31:0] $end
$upscope $end
$upscope $end
$upscope $end
$enddefinitions $end
$comment Show the parameter values. $end
$dumpall
$end
#0
$dumpvars
bx o
bx n
bx m
bx00 l
b100000 k
bx j
bx i
bx h
bx g
bx f
bx e
bx d
bx c
bx b
b0 a
bx00 `
bx _
bx ^
bx ]
bx \
bx [
bx Z
bx Y
bx X
bx W
bx V
bx U
bx T
bx00 S
bx R
bx Q
b100000000 P
bx O
bx N
bx M
bx L
bx K
bx J
bx I
bx H
bx G
bx00 F
bx E
bx D
bx C
bx B
bx A
bx @
bx ?
bx >
bx =
bx <
bx ;
x:
bx 9
x8
bx 7
x6
bx00 5
x4
x3
x2
bx 1
bx 0
b0 /
bx .
bx -
bx ,
bx +
bx *
bx )
x(
x'
bx00 &
bx %
x$
x#
0"
0!
$end
#5
b100 /
b100 a
b101100 9
b101100 E
b101100 Z
0$
0#
b0 +
b0 O
b0 ]
b1010 %
b1010 ^
b1010 i
b10 =
b10 A
b10 G
b101000 &
b101000 F
b101000 l
b1010 1
b1010 H
b1010 X
b1010 ;
b1010 J
b1010 M
b1010 \
b1000 .
b1000 d
b1000 j
b0 <
b0 @
b0 L
08
03
04
1'
02
1:
06
0(
b1010 ?
b1010 -
b1010 V
b1010 m
b1010 o
b1010 n
b0 )
b0 N
b0 W
b0 f
b1000 h
b0 *
b0 I
b0 e
b0 g
b0 c
b1000 b
b10000000000000001010 R
b1000 K
b1000000000000000101000 5
b1000000000000000101000 S
b1000000000000000101000 `
b0 Q
b100 0
b100 [
b100 _
b100000000010000000000000001010 7
b100000000010000000000000001010 U
b100 ,
b100 C
b100 D
b100 Y
b0 >
b0 B
b0 T
1!
#10
0!
#15
b101 %
b101 ^
b101 i
b101 ;
b101 J
b101 M
b101 \
b10100 &
b10100 F
b10100 l
b101 1
b101 H
b101 X
b1001 .
b1001 d
b1001 j
b1000 /
b1000 a
b101 ?
b101 -
b101 V
b101 m
b101 o
b101 n
b1001 h
b1001 b
b1001000000000000010100 5
b1001000000000000010100 S
b1001000000000000010100 `
b10010000000000000101 R
b1000 0
b1000 [
b1000 _
b100000000010010000000000000101 7
b100000000010010000000000000101 U
b0 )
b0 N
b0 W
b0 f
b11100 9
b11100 E
b11100 Z
b1000 ,
b1000 C
b1000 D
b1000 Y
b100 >
b100 B
b100 T
1!
#20
0!
#25
1$
b0 %
b0 ^
b0 i
b0 ;
b0 J
b0 M
b0 \
b0 &
b0 F
b0 l
b0 1
b0 H
b0 X
b1000 .
b1000 d
b1000 j
13
0'
b1100 /
b1100 a
b0 ?
b0 -
b0 V
b0 m
b0 o
b0 n
b1000 h
b1000 b
b1000000000000000000000 5
b1000000000000000000000 S
b1000000000000000000000 `
b10000000000000000000 R
b101011 K
b1100 0
b1100 [
b1100 _
b10101100000010000000000000000000 7
b10101100000010000000000000000000 U
b1010 )
b1010 N
b1010 W
b1010 f
b1100 9
b1100 E
b1100 Z
b1100 ,
b1100 C
b1100 D
b1100 Y
b1000 >
b1000 B
b1000 T
1!
#30
0!
#35
b1010 %
b1010 ^
b1010 i
b1010 +
b1010 O
b1010 ]
b1010 .
b1010 d
b1010 j
03
14
1'
12
b10000 /
b10000 a
b0 )
b0 N
b0 W
b0 f
b1010 h
b1010 b
b1010000000000000000000 5
b1010000000000000000000 S
b1010000000000000000000 `
b10100000000000000000 R
b100011 K
b10000 0
b10000 [
b10000 _
b10001100000010100000000000000000 7
b10001100000010100000000000000000 U
b10000 9
b10000 E
b10000 Z
b10000 ,
b10000 C
b10000 D
b10000 Y
b1100 >
b1100 B
b1100 T
1!
#40
0!
#45
b1111 %
b1111 ^
b1111 i
0$
b0 +
b0 O
b0 ]
b10110000010000000 &
b10110000010000000 F
b10110000010000000 l
b101 1
b101 H
b101 X
b1111 ;
b1111 J
b1111 M
b1111 \
b1011 .
b1011 d
b1011 j
b10 <
b10 @
b10 L
04
02
0:
1(
b10100 /
b10100 a
b100000 ?
b101100000100000 -
b101100000100000 V
b101100000100000 m
b101100000100000 o
b101100000100000 n
b1001 h
b1010 *
b1010 I
b1010 e
b1000 g
b1011 c
b1001 b
b100001001010110000010000000 5
b100001001010110000010000000 S
b100001001010110000010000000 `
b1000010010101100000100000 R
b0 K
b10100 0
b10100 [
b10100 _
b1000010010101100000100000 7
b1000010010101100000100000 U
b101 )
b101 N
b101 W
b101 f
b10110000010010100 9
b10110000010010100 E
b10110000010010100 Z
b10100 ,
b10100 C
b10100 D
b10100 Y
b10000 >
b10000 B
b10000 T
1!
#50
0!
#55
b101 %
b101 ^
b101 i
b101 ;
b101 J
b101 M
b101 \
b110 =
b110 A
b110 G
b11000000010001000 &
b11000000010001000 F
b11000000010001000 l
b1100 .
b1100 d
b1100 j
b11000 /
b11000 a
b100010 ?
b110000000100010 -
b110000000100010 V
b110000000100010 m
b110000000100010 o
b110000000100010 n
b1100 c
b100001001011000000010001000 5
b100001001011000000010001000 S
b100001001011000000010001000 `
b1000010010110000000100010 R
b11000 0
b11000 [
b11000 _
b1000010010110000000100010 7
b1000010010110000000100010 U
b11000000010100000 9
b11000000010100000 E
b11000000010100000 Z
b11000 ,
b11000 C
b11000 D
b11000 Y
b10100 >
b10100 B
b10100 T
1!
#60
0!
#65
1#
1$
b0 %
b0 ^
b0 i
b100 &
b100 F
b100 l
b0 ;
b0 J
b0 M
b0 \
b1 <
b1 @
b1 L
18
0'
0(
b100000 /
b100000 a
b1 ?
b1 -
b1 V
b1 m
b1 o
b1 n
b1100 h
b101 *
b101 I
b101 e
b1001 g
b0 c
b1100 b
b100101100000000000000000100 5
b100101100000000000000000100 S
b100101100000000000000000100 `
b1001011000000000000000001 R
b100 K
b100000 0
b100000 [
b100000 _
b10001001011000000000000000001 7
b10001001011000000000000000001 U
b100000 9
b100000 E
b100000 Z
b11100 ,
b11100 C
b11100 D
b11100 Y
b11000 >
b11000 B
b11000 T
1!
#70
0!
#75
1$
b0 %
b0 ^
b0 i
0#
b0 =
b0 A
b0 G
b11100000010010000 &
b11100000010010000 F
b11100000010010000 l
b0 ;
b0 J
b0 M
b0 \
b1110 .
b1110 d
b1110 j
b10 <
b10 @
b10 L
08
1'
1(
b100100 /
b100100 a
b100100 ?
b111000000100100 -
b111000000100100 V
b111000000100100 m
b111000000100100 o
b111000000100100 n
b1001 h
b1010 *
b1010 I
b1010 e
b1000 g
b1110 c
b1001 b
b100001001011100000010010000 5
b100001001011100000010010000 S
b100001001011100000010010000 `
b1000010010111000000100100 R
b0 K
b100100 0
b100100 [
b100100 _
b1000010010111000000100100 7
b1000010010111000000100100 U
b11100000010110100 9
b11100000010110100 E
b11100000010110100 Z
b100100 ,
b100100 C
b100100 D
b100100 Y
b100000 >
b100000 B
b100000 T
1!
#80
0!
#85
0$
b1111 %
b1111 ^
b1111 i
b1111 ;
b1111 J
b1111 M
b1111 \
b1 =
b1 A
b1 G
b11110000010010100 &
b11110000010010100 F
b11110000010010100 l
b1111 .
b1111 d
b1111 j
b101000 /
b101000 a
b100101 ?
b111100000100101 -
b111100000100101 V
b111100000100101 m
b111100000100101 o
b111100000100101 n
b1111 c
b100001001011110000010010100 5
b100001001011110000010010100 S
b100001001011110000010010100 `
b1000010010111100000100101 R
b101000 0
b101000 [
b101000 _
b1000010010111100000100101 7
b1000010010111100000100101 U
b11110000010111100 9
b11110000010111100 E
b11110000010111100 Z
b101000 ,
b101000 C
b101000 D
b101000 Y
b100100 >
b100100 B
b100100 T
1!
#90
0!
#95
1$
b0 %
b0 ^
b0 i
b0 ;
b0 J
b0 M
b0 \
b111 =
b111 A
b111 G
b11111111111111110000000010101000 &
b11111111111111110000000010101000 F
b11111111111111110000000010101000 l
b0 1
b0 H
b0 X
b11000 .
b11000 d
b11000 j
b101100 /
b101100 a
b101010 ?
b11111111111111111100000000101010 -
b11111111111111111100000000101010 V
b11111111111111111100000000101010 m
b11111111111111111100000000101010 o
b1100000000101010 n
b0 )
b0 N
b0 W
b0 f
b1 h
b11000 c
b1 b
b100000001110000000010101000 5
b100000001110000000010101000 S
b100000001110000000010101000 `
b1000000011100000000101010 R
b101100 0
b101100 [
b101100 _
b1000000011100000000101010 7
b1000000011100000000101010 U
b11111111111111110000000011010100 9
b11111111111111110000000011010100 E
b11111111111111110000000011010100 Z
b101100 ,
b101100 C
b101100 D
b101100 Y
b101000 >
b101000 B
b101000 T
1!
#100
0!
#105
b10 =
b10 A
b10 G
b11100 &
b11100 F
b11100 l
b10000 .
b10000 d
b10000 j
b0 <
b0 @
b0 L
0'
16
0(
b10000000000000000011100 /
b10000000000000000011100 a
b111 ?
b111 -
b111 V
b111 m
b111 o
b111 n
b10000 h
b0 *
b0 I
b0 e
b0 g
b0 c
b10000 b
b10000000000000000011100 5
b10000000000000000011100 S
b10000000000000000011100 `
b100000000000000000111 R
b10 K
b110000 0
b110000 [
b110000 _
b1000000100000000000000000111 7
b1000000100000000000000000111 U
b1001100 9
b1001100 E
b1001100 Z
b110000 ,
b110000 C
b110000 D
b110000 Y
b101100 >
b101100 B
b101100 T
1!
#110
0!
#115
0$
b101010 %
b101010 ^
b101010 i
b101010 ;
b101010 J
b101010 M
b101010 \
b10101000 &
b10101000 F
b10101000 l
b101010 1
b101010 H
b101010 X
b1101 .
b1101 d
b1101 j
1'
1:
06
b10000000000000000100000 /
b10000000000000000100000 a
b101010 ?
b101010 -
b101010 V
b101010 m
b101010 o
b101010 n
b1101 h
b1101 b
b1101000000000010101000 5
b1101000000000010101000 S
b1101000000000010101000 `
b11010000000000101010 R
b1000 K
b10000000000000000100000 0
b10000000000000000100000 [
b10000000000000000100000 _
b100000000011010000000000101010 7
b100000000011010000000000101010 U
b10000000000000011001000 9
b10000000000000011001000 E
b10000000000000011001000 Z
b10000000000000000100000 ,
b10000000000000000100000 C
b10000000000000000100000 D
b10000000000000000100000 Y
b10000000000000000011100 >
b10000000000000000011100 B
b10000000000000000011100 T
1!
#120
0!
#125
1$
b0 %
b0 ^
b0 i
b0 =
b0 A
b0 G
b11100000010010000 &
b11100000010010000 F
b11100000010010000 l
b101 1
b101 H
b101 X
b0 ;
b0 J
b0 M
b0 \
b1110 .
b1110 d
b1110 j
b10 <
b10 @
b10 L
0:
1(
b10000000000000000100100 /
b10000000000000000100100 a
b100100 ?
b111000000100100 -
b111000000100100 V
b111000000100100 m
b111000000100100 o
b111000000100100 n
b1001 h
b1010 *
b1010 I
b1010 e
b1000 g
b1110 c
b1001 b
b100001001011100000010010000 5
b100001001011100000010010000 S
b100001001011100000010010000 `
b1000010010111000000100100 R
b0 K
b10000000000000000100100 0
b10000000000000000100100 [
b10000000000000000100100 _
b1000010010111000000100100 7
b1000010010111000000100100 U
b101 )
b101 N
b101 W
b101 f
b10000011100000010110100 9
b10000011100000010110100 E
b10000011100000010110100 Z
b10000000000000000100100 ,
b10000000000000000100100 C
b10000000000000000100100 D
b10000000000000000100100 Y
b10000000000000000100000 >
b10000000000000000100000 B
b10000000000000000100000 T
1!
#130
0!
#135
0$
b1111 %
b1111 ^
b1111 i
b1111 ;
b1111 J
b1111 M
b1111 \
b1 =
b1 A
b1 G
b11110000010010100 &
b11110000010010100 F
b11110000010010100 l
b1111 .
b1111 d
b1111 j
b10000000000000000101000 /
b10000000000000000101000 a
b100101 ?
b111100000100101 -
b111100000100101 V
b111100000100101 m
b111100000100101 o
b111100000100101 n
b1111 c
b100001001011110000010010100 5
b100001001011110000010010100 S
b100001001011110000010010100 `
b1000010010111100000100101 R
b10000000000000000101000 0
b10000000000000000101000 [
b10000000000000000101000 _
b1000010010111100000100101 7
b1000010010111100000100101 U
b10000011110000010111100 9
b10000011110000010111100 E
b10000011110000010111100 Z
b10000000000000000101000 ,
b10000000000000000101000 C
b10000000000000000101000 D
b10000000000000000101000 Y
b10000000000000000100100 >
b10000000000000000100100 B
b10000000000000000100100 T
1!
#140
0!
#145
1$
b0 %
b0 ^
b0 i
b0 ;
b0 J
b0 M
b0 \
b111 =
b111 A
b111 G
b11111111111111110000000010101000 &
b11111111111111110000000010101000 F
b11111111111111110000000010101000 l
b0 1
b0 H
b0 X
b11000 .
b11000 d
b11000 j
b10000000000000000101100 /
b10000000000000000101100 a
b101010 ?
b11111111111111111100000000101010 -
b11111111111111111100000000101010 V
b11111111111111111100000000101010 m
b11111111111111111100000000101010 o
b1100000000101010 n
b0 )
b0 N
b0 W
b0 f
b1 h
b11000 c
b1 b
b100000001110000000010101000 5
b100000001110000000010101000 S
b100000001110000000010101000 `
b1000000011100000000101010 R
b10000000000000000101100 0
b10000000000000000101100 [
b10000000000000000101100 _
b1000000011100000000101010 7
b1000000011100000000101010 U
b1111110000000011010100 9
b1111110000000011010100 E
b1111110000000011010100 Z
b10000000000000000101100 ,
b10000000000000000101100 C
b10000000000000000101100 D
b10000000000000000101100 Y
b10000000000000000101000 >
b10000000000000000101000 B
b10000000000000000101000 T
1!
#150
0!
#155
b10 =
b10 A
b10 G
b11100 &
b11100 F
b11100 l
b10000 .
b10000 d
b10000 j
b0 <
b0 @
b0 L
0'
16
0(
b10000000000000000011100 /
b10000000000000000011100 a
b111 ?
b111 -
b111 V
b111 m
b111 o
b111 n
b10000 h
b0 *
b0 I
b0 e
b0 g
b0 c
b10000 b
b10000000000000000011100 5
b10000000000000000011100 S
b10000000000000000011100 `
b100000000000000000111 R
b10 K
b10000000000000000110000 0
b10000000000000000110000 [
b10000000000000000110000 _
b1000000100000000000000000111 7
b1000000100000000000000000111 U
b10000000000000001001100 9
b10000000000000001001100 E
b10000000000000001001100 Z
b10000000000000000110000 ,
b10000000000000000110000 C
b10000000000000000110000 D
b10000000000000000110000 Y
b10000000000000000101100 >
b10000000000000000101100 B
b10000000000000000101100 T
1!
#160
0!
#165
0$
b101010 %
b101010 ^
b101010 i
b101010 ;
b101010 J
b101010 M
b101010 \
b10101000 &
b10101000 F
b10101000 l
b101010 1
b101010 H
b101010 X
b1101 .
b1101 d
b1101 j
1'
1:
06
b10000000000000000100000 /
b10000000000000000100000 a
b101010 ?
b101010 -
b101010 V
b101010 m
b101010 o
b101010 n
b101010 )
b101010 N
b101010 W
b101010 f
b1101 h
b1101 b
b1101000000000010101000 5
b1101000000000010101000 S
b1101000000000010101000 `
b11010000000000101010 R
b1000 K
b10000000000000000100000 0
b10000000000000000100000 [
b10000000000000000100000 _
b100000000011010000000000101010 7
b100000000011010000000000101010 U
b10000000000000011001000 9
b10000000000000011001000 E
b10000000000000011001000 Z
b10000000000000000100000 ,
b10000000000000000100000 C
b10000000000000000100000 D
b10000000000000000100000 Y
b10000000000000000011100 >
b10000000000000000011100 B
b10000000000000000011100 T
1!
#170
0!
#175
1$
b0 %
b0 ^
b0 i
b0 =
b0 A
b0 G
b11100000010010000 &
b11100000010010000 F
b11100000010010000 l
b101 1
b101 H
b101 X
b0 ;
b0 J
b0 M
b0 \
b1110 .
b1110 d
b1110 j
b10 <
b10 @
b10 L
0:
1(
b10000000000000000100100 /
b10000000000000000100100 a
b100100 ?
b111000000100100 -
b111000000100100 V
b111000000100100 m
b111000000100100 o
b111000000100100 n
b101 )
b101 N
b101 W
b101 f
b1001 h
b1010 *
b1010 I
b1010 e
b1000 g
b1110 c
b1001 b
b100001001011100000010010000 5
b100001001011100000010010000 S
b100001001011100000010010000 `
b1000010010111000000100100 R
b0 K
b10000000000000000100100 0
b10000000000000000100100 [
b10000000000000000100100 _
b1000010010111000000100100 7
b1000010010111000000100100 U
b10000011100000010110100 9
b10000011100000010110100 E
b10000011100000010110100 Z
b10000000000000000100100 ,
b10000000000000000100100 C
b10000000000000000100100 D
b10000000000000000100100 Y
b10000000000000000100000 >
b10000000000000000100000 B
b10000000000000000100000 T
1!
#180
0!
#185
0$
b1111 %
b1111 ^
b1111 i
b1111 ;
b1111 J
b1111 M
b1111 \
b1 =
b1 A
b1 G
b11110000010010100 &
b11110000010010100 F
b11110000010010100 l
b1111 .
b1111 d
b1111 j
b10000000000000000101000 /
b10000000000000000101000 a
b100101 ?
b111100000100101 -
b111100000100101 V
b111100000100101 m
b111100000100101 o
b111100000100101 n
b1111 c
b100001001011110000010010100 5
b100001001011110000010010100 S
b100001001011110000010010100 `
b1000010010111100000100101 R
b10000000000000000101000 0
b10000000000000000101000 [
b10000000000000000101000 _
b1000010010111100000100101 7
b1000010010111100000100101 U
b10000011110000010111100 9
b10000011110000010111100 E
b10000011110000010111100 Z
b10000000000000000101000 ,
b10000000000000000101000 C
b10000000000000000101000 D
b10000000000000000101000 Y
b10000000000000000100100 >
b10000000000000000100100 B
b10000000000000000100100 T
1!
#190
0!
#195
1$
b0 %
b0 ^
b0 i
b0 ;
b0 J
b0 M
b0 \
b111 =
b111 A
b111 G
b11111111111111110000000010101000 &
b11111111111111110000000010101000 F
b11111111111111110000000010101000 l
b0 1
b0 H
b0 X
b11000 .
b11000 d
b11000 j
b10000000000000000101100 /
b10000000000000000101100 a
b101010 ?
b11111111111111111100000000101010 -
b11111111111111111100000000101010 V
b11111111111111111100000000101010 m
b11111111111111111100000000101010 o
b1100000000101010 n
b0 )
b0 N
b0 W
b0 f
b1 h
b11000 c
b1 b
b100000001110000000010101000 5
b100000001110000000010101000 S
b100000001110000000010101000 `
b1000000011100000000101010 R
b10000000000000000101100 0
b10000000000000000101100 [
b10000000000000000101100 _
b1000000011100000000101010 7
b1000000011100000000101010 U
b1111110000000011010100 9
b1111110000000011010100 E
b1111110000000011010100 Z
b10000000000000000101100 ,
b10000000000000000101100 C
b10000000000000000101100 D
b10000000000000000101100 Y
b10000000000000000101000 >
b10000000000000000101000 B
b10000000000000000101000 T
1!
