AntonioFranciscoDosSantosReis/CicloSimples/single_cycle_tb.vcd
$date
	Sun Apr  6 12:03:09 2025
$end
$version
	Icarus Verilog
$end
$timescale
	1ns
$end
$scope module single_cycle_tb $end
$var reg 1 ! clk $end
$var reg 1 " reset $end
$scope module uut $end
$var wire 1 ! clk $end
$var wire 1 " reset $end
$var wire 1 # zero_top $end
$var wire 5 $ writeRegister_top [4:0] $end
$var wire 32 % writeBackData_top [31:0] $end
$var wire 1 & regWrite_top $end
$var wire 32 ' read_data_top [31:0] $end
$var wire 32 ( pc_outplus_top [31:0] $end
$var wire 32 ) out_adder_top [31:0] $end
$var wire 32 * mux_adder_out_top [31:0] $end
$var wire 32 + mergebitsJump_top [31:0] $end
$var wire 1 , memtoReg_top $end
$var wire 1 - memWrite_top $end
$var wire 1 . memRead_top $end
$var wire 1 / jump_top $end
$var wire 32 0 instruction_top [31:0] $end
$var wire 1 1 branch_top $end
$var wire 32 2 bits_extends_top [31:0] $end
$var wire 1 3 and_out_top $end
$var wire 3 4 alu_control_top [2:0] $end
$var wire 1 5 RegDst_top $end
$var wire 32 6 Rd2_top [31:0] $end
$var wire 32 7 Rd1_top [31:0] $end
$var wire 32 8 PCin_top [31:0] $end
$var wire 32 9 PC_top [31:0] $end
$var wire 2 : ALUop_top [1:0] $end
$var wire 32 ; ALU_result_top [31:0] $end
$var wire 32 < ALU_mux_top [31:0] $end
$var wire 1 = ALUSrc_top $end
$scope module ALU $end
$var wire 3 > alu_control [2:0] $end
$var wire 32 ? B [31:0] $end
$var wire 32 @ A [31:0] $end
$var reg 32 A ALU_result [31:0] $end
$var reg 1 # zero $end
$upscope $end
$scope module ALU_C $end
$var wire 6 B funct [5:0] $end
$var wire 2 C ALUop [1:0] $end
$var reg 3 D ALUControl [2:0] $end
$upscope $end
$scope module ALU_mux $end
$var wire 1 = sel1 $end
$var wire 32 E out [31:0] $end
$var wire 32 F B [31:0] $end
$var wire 32 G A [31:0] $end
$upscope $end
$scope module Adder_mux $end
$var wire 1 3 sel2 $end
$var wire 32 H out2 [31:0] $end
$var wire 32 I B2 [31:0] $end
$var wire 32 J A2 [31:0] $end
$upscope $end
$scope module Control_unit $end
$var wire 6 K instruction [5:0] $end
$var reg 1 = ALUSrc $end
$var reg 2 L ALUop [1:0] $end
$var reg 1 1 Branch $end
$var reg 1 . MemRead $end
$var reg 1 - MemWrite $end
$var reg 1 , MemtoReg $end
$var reg 1 5 RegDst $end
$var reg 1 & RegWrite $end
$var reg 1 / jump $end
$upscope $end
$scope module Inst_Memory $end
$var wire 1 ! clk $end
$var wire 32 M instruction_out [31:0] $end
$var wire 1 " reset $end
$var wire 32 N read_address [31:0] $end
$var integer 32 O k [31:0] $end
$upscope $end
$scope module PC $end
$var wire 1 ! clk $end
$var wire 1 " reset $end
$var wire 32 P pc_in [31:0] $end
$var reg 32 Q pc_out [31:0] $end
$upscope $end
$scope module PC_ADDER $end
$var wire 32 R pc_out [31:0] $end
$var wire 32 S pc_outplus [31:0] $end
$upscope $end
$scope module Reg_File $end
$var wire 32 T Rd1 [31:0] $end
$var wire 32 U Rd2 [31:0] $end
$var wire 5 V Rs1 [4:0] $end
$var wire 5 W Rs2 [4:0] $end
$var wire 1 ! clk $end
$var wire 1 & regWrite $end
$var wire 1 " reset $end
$var wire 32 X writeData [31:0] $end
$var wire 5 Y wR [4:0] $end
$upscope $end
$scope module Sig_Ext $end
$var wire 16 Z instruction [15:0] $end
$var wire 32 [ bits_extends [31:0] $end
$upscope $end
$scope module add $end
$var wire 32 \ in1 [31:0] $end
$var wire 32 ] in2 [31:0] $end
$var wire 32 ^ out_adder [31:0] $end
$upscope $end
$scope module and_gate $end
$var wire 1 3 and_out $end
$var wire 1 1 branch $end
$var wire 1 # zero $end
$upscope $end
$scope module data_mem $end
$var wire 32 _ address [31:0] $end
$var wire 1 ! clk $end
$var wire 1 . memRead $end
$var wire 1 - memWrite $end
$var wire 1 " reset $end
$var wire 32 ` write_Data [31:0] $end
$var wire 32 a read_Data [31:0] $end
$upscope $end
$scope module data_memory_mux $end
$var wire 32 b A2 [31:0] $end
$var wire 32 c B2 [31:0] $end
$var wire 1 , sel2 $end
$var wire 32 d out2 [31:0] $end
$upscope $end
$scope module m1 $end
$var wire 5 e A [4:0] $end
$var wire 5 f B [4:0] $end
$var wire 1 5 sel1 $end
$var wire 5 g out [4:0] $end
$upscope $end
$scope module mjump $end
$var wire 32 h A [31:0] $end
$var wire 1 / sel $end
$var wire 32 i out [31:0] $end
$var wire 32 j B [31:0] $end
$upscope $end
$scope module u1 $end
$var wire 26 k in1 [25:0] $end
$var wire 4 l in2 [3:0] $end
$var wire 32 m out1 [31:0] $end
$upscope $end
$upscope $end
$upscope $end
$enddefinitions $end
$comment Show the parameter values. $end
$dumpall
$end
#0
$dumpvars
b0 m
b0 l
b0 k
b0 j
b100 i
b100 h
b0 g
b0 f
b0 e
b0 d
b0 c
b0 b
b0 a
b0 `
b0 _
b100 ^
b0 ]
b100 \
b0 [
b0 Z
b0 Y
b0 X
b0 W
b0 V
b0 U
b0 T
b100 S
b0 R
b0 Q
b100 P
b1000000 O
b0 N
b0 M
b10 L
b0 K
b100 J
b100 I
b100 H
b0 G
b0 F
b0 E
bx D
b10 C
b0 B
b0 A
b0 @
b0 ?
bx >
0=
b0 <
b0 ;
b10 :
b0 9
b100 8
b0 7
b0 6
15
bx 4
03
b0 2
01
b0 0
0/
0.
0-
0,
b0 +
b100 *
b100 )
b100 (
b0 '
1&
b0 %
b0 $
0#
1"
0!
$end
#5
b1 %
b1 X
b1 d
b1 ;
b1 A
b1 _
b1 b
b1000 8
b1000 P
b1000 i
b10011010000000010101000 +
b10011010000000010101000 j
b10011010000000010101000 m
b111 4
b111 >
b111 D
b101 <
b101 ?
b101 E
b1000 $
b1000 Y
b1000 g
b1000 *
b1000 H
b1000 h
b10000100110100000000101010 k
b101010 B
b100000000101010 2
b100000000101010 F
b100000000101010 [
b100000000101010 ]
b100000000101010 Z
b101 6
b101 G
b101 U
b101 `
b10011 W
b10 7
b10 @
b10 T
b10000 V
b1000 f
b10011 e
b10000000010110000 )
b10000000010110000 I
b10000000010110000 ^
b1000 (
b1000 J
b1000 S
b1000 \
b10000100110100000000101010 0
b10000100110100000000101010 M
b100 9
b100 N
b100 Q
b100 R
0"
1!
#10
0!
#15
11
b1100 8
b1100 P
b1100 i
b10000000 +
b10000000 j
b10000000 m
b110 4
b110 >
b110 D
0&
05
b1 :
b1 C
b1 L
b0 <
b0 ?
b0 E
b0 $
b0 Y
b0 g
b1100 *
b1100 H
b1100 h
b1000000000000000000100000 k
b100000 B
b100 K
b100000 2
b100000 F
b100000 [
b100000 ]
b100000 Z
b0 6
b0 G
b0 U
b0 `
b0 W
b1 7
b1 @
b1 T
b1000 V
b0 f
b0 e
b10001100 )
b10001100 I
b10001100 ^
b1100 (
b1100 J
b1100 S
b1100 \
b10001000000000000000000100000 0
b10001000000000000000000100000 M
b1000 9
b1000 N
b1000 Q
b1000 R
1!
#20
0!
#25
1#
1&
15
b10 4
b10 >
b10 D
b100 %
b100 X
b100 d
b10000 8
b10000 P
b10000 i
b10001100010000000010000000 +
b10001100010000000010000000 j
b10001100010000000010000000 m
01
b10 :
b10 C
b10 L
b10 <
b10 ?
b10 E
b100 ;
b100 A
b100 _
b100 b
b1000 $
b1000 Y
b1000 g
b10000 *
b10000 H
b10000 h
b1100011000100000000100000 k
b0 K
b100000000100000 2
b100000000100000 F
b100000000100000 [
b100000000100000 ]
b100000000100000 Z
b10 6
b10 G
b10 U
b10 `
b1100 W
b10 7
b10 @
b10 T
b1100 V
b1000 f
b1100 e
b10000000010010000 )
b10000000010010000 I
b10000000010010000 ^
b10000 (
b10000 J
b10000 S
b10000 \
b1100011000100000000100000 0
b1100011000100000000100000 M
b1100 9
b1100 N
b1100 Q
b1100 R
1!
#30
0!
#35
b1000 %
b1000 X
b1000 d
b10100 8
b10100 P
b10100 i
b1000010000000010000000 +
b1000010000000010000000 j
b1000010000000010000000 m
b100 <
b100 ?
b100 E
b1000 ;
b1000 A
b1000 _
b1000 b
0#
b10100 *
b10100 H
b10100 h
b1000010000100000000100000 k
b100 6
b100 G
b100 U
b100 `
b1000 W
b100 7
b100 @
b100 T
b1000 V
b1000 e
b10000000010010100 )
b10000000010010100 I
b10000000010010100 ^
b10100 (
b10100 J
b10100 S
b10100 \
b1000010000100000000100000 0
b1000010000100000000100000 M
b10000 9
b10000 N
b10000 Q
b10000 R
1!
#40
0!
#45
b11000 8
b11000 P
b11000 i
b10110010010000010000000 +
b10110010010000010000000 j
b10110010010000010000000 m
b1001 $
b1001 Y
b1001 g
b0 <
b0 ?
b0 E
b11000 *
b11000 H
b11000 h
b1000101100100100000100000 k
b100100000100000 2
b100100000100000 F
b100100000100000 [
b100100000100000 ]
b100100000100000 Z
b10110 W
b1001 f
b10110 e
b1000 7
b1000 @
b1000 T
b0 6
b0 G
b0 U
b0 `
b10010000010011000 )
b10010000010011000 I
b10010000010011000 ^
b11000 (
b11000 J
b11000 S
b11000 \
b1000101100100100000100000 0
b1000101100100100000100000 M
b10100 9
b10100 N
b10100 Q
b10100 R
1!
#50
0!
#55
b111011 '
b111011 a
b111011 c
1=
1,
1.
b111011 %
b111011 X
b111011 d
b1000 ;
b1000 A
b1000 _
b1000 b
b11100 8
b11100 P
b11100 i
b110001000000000000000000 +
b110001000000000000000000 j
b110001000000000000000000 m
1&
05
b0 :
b0 C
b0 L
b0 <
b0 ?
b0 E
b10001 $
b10001 Y
b10001 g
b11100 *
b11100 H
b11100 h
b1001100010000000000000000 k
b0 B
b100011 K
b0 2
b0 F
b0 [
b0 ]
b0 Z
b1010 6
b1010 G
b1010 U
b1010 `
b10001 W
b1001 V
b0 f
b10001 e
b11100 )
b11100 I
b11100 ^
b11100 (
b11100 J
b11100 S
b11100 \
b10001101001100010000000000000000 0
b10001101001100010000000000000000 M
b11000 9
b11000 N
b11000 Q
b11000 R
1!
#60
0!
#65
b1000101 %
b1000101 X
b1000101 d
b0 '
b0 a
b0 c
b100000 8
b100000 P
b100000 i
b110001000000000000101000 +
b110001000000000000101000 j
b110001000000000000101000 m
1&
1=
0,
0.
b1010 <
b1010 ?
b1010 E
b1000101 ;
b1000101 A
b1000101 _
b1000101 b
b100000 *
b100000 H
b100000 h
b10001100010000000000001010 k
b1010 B
b1000 K
b1010 2
b1010 F
b1010 [
b1010 ]
b1010 Z
b111011 7
b111011 @
b111011 T
b10001 V
b111011 6
b111011 G
b111011 U
b111011 `
b1001000 )
b1001000 I
b1001000 ^
b100000 (
b100000 J
b100000 S
b100000 \
b100010001100010000000000001010 0
b100010001100010000000000001010 M
b11100 9
b11100 N
b11100 Q
b11100 R
1!
#70
0!
#75
1-
b100100 8
b100100 P
b100100 i
b110001000000000000000000 +
b110001000000000000000000 j
b110001000000000000000000 m
0&
1=
b0 <
b0 ?
b0 E
b1000 %
b1000 X
b1000 d
b100100 *
b100100 H
b100100 h
b1001100010000000000000000 k
b0 B
b101011 K
b0 2
b0 F
b0 [
b0 ]
b0 Z
b1001 V
b1000 ;
b1000 A
b1000 _
b1000 b
b100100 )
b100100 I
b100100 ^
b100100 (
b100100 J
b100100 S
b100100 \
b10101101001100010000000000000000 0
b10101101001100010000000000000000 M
b100000 9
b100000 N
b100000 Q
b100000 R
b1000 7
b1000 @
b1000 T
b1000101 6
b1000101 G
b1000101 U
b1000101 `
1!
#80
0!
#85
1&
b11 %
b11 X
b11 d
b101000 8
b101000 P
b101000 i
b10000000000000000000100 +
b10000000000000000000100 j
b10000000000000000000100 m
1=
0-
b1 <
b1 ?
b1 E
b11 ;
b11 A
b11 _
b11 b
b10000 $
b10000 Y
b10000 g
b101000 *
b101000 H
b101000 h
b10000100000000000000000001 k
b1 B
b1000 K
b1 2
b1 F
b1 [
b1 ]
b1 Z
b10 6
b10 G
b10 U
b10 `
b10000 W
b10 7
b10 @
b10 T
b10000 V
b10000 e
b101100 )
b101100 I
b101100 ^
b101000 (
b101000 J
b101000 S
b101000 \
b100010000100000000000000000001 0
b100010000100000000000000000001 M
b100100 9
b100100 N
b100100 Q
b100100 R
1!
#90
0!
#95
1/
b0 <
b0 ?
b0 E
b100 8
b100 P
b100 i
b100 +
b100 j
b100 m
0&
0=
b0 $
b0 Y
b0 g
b0 %
b0 X
b0 d
b101100 *
b101100 H
b101100 h
b1 k
b10 K
b0 W
b0 V
b0 e
b0 ;
b0 A
b0 _
b0 b
b110000 )
b110000 I
b110000 ^
b101100 (
b101100 J
b101100 S
b101100 \
b1000000000000000000000000001 0
b1000000000000000000000000001 M
b101000 9
b101000 N
b101000 Q
b101000 R
b0 7
b0 @
b0 T
b0 6
b0 G
b0 U
b0 `
1!
#100
0!
#105
b111 4
b111 >
b111 D
1&
15
b10 :
b10 C
b10 L
b1000 8
b1000 P
b1000 i
b1 %
b1 X
b1 d
b10011010000000010101000 +
b10011010000000010101000 j
b10011010000000010101000 m
0/
b101 <
b101 ?
b101 E
b1 ;
b1 A
b1 _
b1 b
b1000 $
b1000 Y
b1000 g
b1000 *
b1000 H
b1000 h
b10000100110100000000101010 k
b101010 B
b0 K
b100000000101010 2
b100000000101010 F
b100000000101010 [
b100000000101010 ]
b100000000101010 Z
b101 6
b101 G
b101 U
b101 `
b10011 W
b11 7
b11 @
b11 T
b10000 V
b1000 f
b10011 e
b10000000010110000 )
b10000000010110000 I
b10000000010110000 ^
b1000 (
b1000 J
b1000 S
b1000 \
b10000100110100000000101010 0
b10000100110100000000101010 M
b100 9
b100 N
b100 Q
b100 R
1!
#110
0!
#115
11
b1100 8
b1100 P
b1100 i
b10000000 +
b10000000 j
b10000000 m
b110 4
b110 >
b110 D
0&
05
b1 :
b1 C
b1 L
b0 <
b0 ?
b0 E
b0 $
b0 Y
b0 g
b1100 *
b1100 H
b1100 h
b1000000000000000000100000 k
b100000 B
b100 K
b100000 2
b100000 F
b100000 [
b100000 ]
b100000 Z
b0 6
b0 G
b0 U
b0 `
b0 W
b1 7
b1 @
b1 T
b1000 V
b0 f
b0 e
b10001100 )
b10001100 I
b10001100 ^
b1100 (
b1100 J
b1100 S
b1100 \
b10001000000000000000000100000 0
b10001000000000000000000100000 M
b1000 9
b1000 N
b1000 Q
b1000 R
1!
#120
0!
#125
1#
1&
15
b10 4
b10 >
b10 D
b100 %
b100 X
b100 d
b10000 8
b10000 P
b10000 i
b10001100010000000010000000 +
b10001100010000000010000000 j
b10001100010000000010000000 m
01
b10 :
b10 C
b10 L
b10 <
b10 ?
b10 E
b100 ;
b100 A
b100 _
b100 b
b1000 $
b1000 Y
b1000 g
b10000 *
b10000 H
b10000 h
b1100011000100000000100000 k
b0 K
b100000000100000 2
b100000000100000 F
b100000000100000 [
b100000000100000 ]
b100000000100000 Z
b10 6
b10 G
b10 U
b10 `
b1100 W
b10 7
b10 @
b10 T
b1100 V
b1000 f
b1100 e
b10000000010010000 )
b10000000010010000 I
b10000000010010000 ^
b10000 (
b10000 J
b10000 S
b10000 \
b1100011000100000000100000 0
b1100011000100000000100000 M
b1100 9
b1100 N
b1100 Q
b1100 R
1!
#130
0!
#135
b1000 %
b1000 X
b1000 d
b10100 8
b10100 P
b10100 i
b1000010000000010000000 +
b1000010000000010000000 j
b1000010000000010000000 m
b100 <
b100 ?
b100 E
b1000 ;
b1000 A
b1000 _
b1000 b
0#
b10100 *
b10100 H
b10100 h
b1000010000100000000100000 k
b100 6
b100 G
b100 U
b100 `
b1000 W
b100 7
b100 @
b100 T
b1000 V
b1000 e
b10000000010010100 )
b10000000010010100 I
b10000000010010100 ^
b10100 (
b10100 J
b10100 S
b10100 \
b1000010000100000000100000 0
b1000010000100000000100000 M
b10000 9
b10000 N
b10000 Q
b10000 R
1!
#140
0!
#145
b11000 8
b11000 P
b11000 i
b10110010010000010000000 +
b10110010010000010000000 j
b10110010010000010000000 m
b1001 $
b1001 Y
b1001 g
b0 <
b0 ?
b0 E
b11000 *
b11000 H
b11000 h
b1000101100100100000100000 k
b100100000100000 2
b100100000100000 F
b100100000100000 [
b100100000100000 ]
b100100000100000 Z
b10110 W
b1001 f
b10110 e
b1000 7
b1000 @
b1000 T
b0 6
b0 G
b0 U
b0 `
b10010000010011000 )
b10010000010011000 I
b10010000010011000 ^
b11000 (
b11000 J
b11000 S
b11000 \
b1000101100100100000100000 0
b1000101100100100000100000 M
b10100 9
b10100 N
b10100 Q
b10100 R
1!
#150
0!
#155
b1000101 '
b1000101 a
b1000101 c
1=
1,
1.
b1000101 %
b1000101 X
b1000101 d
b1000 ;
b1000 A
b1000 _
b1000 b
b11100 8
b11100 P
b11100 i
b110001000000000000000000 +
b110001000000000000000000 j
b110001000000000000000000 m
1&
05
b0 :
b0 C
b0 L
b0 <
b0 ?
b0 E
b10001 $
b10001 Y
b10001 g
b11100 *
b11100 H
b11100 h
b1001100010000000000000000 k
b0 B
b100011 K
b0 2
b0 F
b0 [
b0 ]
b0 Z
b1000101 6
b1000101 G
b1000101 U
b1000101 `
b10001 W
b1001 V
b0 f
b10001 e
b11100 )
b11100 I
b11100 ^
b11100 (
b11100 J
b11100 S
b11100 \
b10001101001100010000000000000000 0
b10001101001100010000000000000000 M
b11000 9
b11000 N
b11000 Q
b11000 R
1!
#160
0!
#165
b1001111 %
b1001111 X
b1001111 d
b0 '
b0 a
b0 c
b100000 8
b100000 P
b100000 i
b110001000000000000101000 +
b110001000000000000101000 j
b110001000000000000101000 m
1&
1=
0,
0.
b1010 <
b1010 ?
b1010 E
b1001111 ;
b1001111 A
b1001111 _
b1001111 b
b100000 *
b100000 H
b100000 h
b10001100010000000000001010 k
b1010 B
b1000 K
b1010 2
b1010 F
b1010 [
b1010 ]
b1010 Z
b1000101 7
b1000101 @
b1000101 T
b10001 V
b1001000 )
b1001000 I
b1001000 ^
b100000 (
b100000 J
b100000 S
b100000 \
b100010001100010000000000001010 0
b100010001100010000000000001010 M
b11100 9
b11100 N
b11100 Q
b11100 R
1!
#170
0!
#175
1-
b100100 8
b100100 P
b100100 i
b110001000000000000000000 +
b110001000000000000000000 j
b110001000000000000000000 m
0&
1=
b0 <
b0 ?
b0 E
b1000 %
b1000 X
b1000 d
b100100 *
b100100 H
b100100 h
b1001100010000000000000000 k
b0 B
b101011 K
b0 2
b0 F
b0 [
b0 ]
b0 Z
b1001 V
b1000 ;
b1000 A
b1000 _
b1000 b
b100100 )
b100100 I
b100100 ^
b100100 (
b100100 J
b100100 S
b100100 \
b10101101001100010000000000000000 0
b10101101001100010000000000000000 M
b100000 9
b100000 N
b100000 Q
b100000 R
b1000 7
b1000 @
b1000 T
b1001111 6
b1001111 G
b1001111 U
b1001111 `
1!
#180
0!
#185
1&
b100 %
b100 X
b100 d
b101000 8
b101000 P
b101000 i
b10000000000000000000100 +
b10000000000000000000100 j
b10000000000000000000100 m
1=
0-
b1 <
b1 ?
b1 E
b100 ;
b100 A
b100 _
b100 b
b10000 $
b10000 Y
b10000 g
b101000 *
b101000 H
b101000 h
b10000100000000000000000001 k
b1 B
b1000 K
b1 2
b1 F
b1 [
b1 ]
b1 Z
b11 6
b11 G
b11 U
b11 `
b10000 W
b11 7
b11 @
b11 T
b10000 V
b10000 e
b101100 )
b101100 I
b101100 ^
b101000 (
b101000 J
b101000 S
b101000 \
b100010000100000000000000000001 0
b100010000100000000000000000001 M
b100100 9
b100100 N
b100100 Q
b100100 R
1!
#190
0!
#195
1/
b0 <
b0 ?
b0 E
b100 8
b100 P
b100 i
b100 +
b100 j
b100 m
0&
0=
b0 $
b0 Y
b0 g
b0 %
b0 X
b0 d
b101100 *
b101100 H
b101100 h
b1 k
b10 K
b0 W
b0 V
b0 e
b0 ;
b0 A
b0 _
b0 b
b110000 )
b110000 I
b110000 ^
b101100 (
b101100 J
b101100 S
b101100 \
b1000000000000000000000000001 0
b1000000000000000000000000001 M
b101000 9
b101000 N
b101000 Q
b101000 R
b0 7
b0 @
b0 T
b0 6
b0 G
b0 U
b0 `
1!
#200
0!
#205
b111 4
b111 >
b111 D
1&
15
b10 :
b10 C
b10 L
b1000 8
b1000 P
b1000 i
b1 %
b1 X
b1 d
b10011010000000010101000 +
b10011010000000010101000 j
b10011010000000010101000 m
0/
b101 <
b101 ?
b101 E
b1 ;
b1 A
b1 _
b1 b
b1000 $
b1000 Y
b1000 g
b1000 *
b1000 H
b1000 h
b10000100110100000000101010 k
b101010 B
b0 K
b100000000101010 2
b100000000101010 F
b100000000101010 [
b100000000101010 ]
b100000000101010 Z
b101 6
b101 G
b101 U
b101 `
b10011 W
b100 7
b100 @
b100 T
b10000 V
b1000 f
b10011 e
b10000000010110000 )
b10000000010110000 I
b10000000010110000 ^
b1000 (
b1000 J
b1000 S
b1000 \
b10000100110100000000101010 0
b10000100110100000000101010 M
b100 9
b100 N
b100 Q
b100 R
1!
#210
0!
#215
11
b1100 8
b1100 P
b1100 i
b10000000 +
b10000000 j
b10000000 m
b110 4
b110 >
b110 D
0&
05
b1 :
b1 C
b1 L
b0 <
b0 ?
b0 E
b0 $
b0 Y
b0 g
b1100 *
b1100 H
b1100 h
b1000000000000000000100000 k
b100000 B
b100 K
b100000 2
b100000 F
b100000 [
b100000 ]
b100000 Z
b0 6
b0 G
b0 U
b0 `
b0 W
b1 7
b1 @
b1 T
b1000 V
b0 f
b0 e
b10001100 )
b10001100 I
b10001100 ^
b1100 (
b1100 J
b1100 S
b1100 \
b10001000000000000000000100000 0
b10001000000000000000000100000 M
b1000 9
b1000 N
b1000 Q
b1000 R
1!
#220
0!
#225
1#
1&
15
b10 4
b10 >
b10 D
b100 %
b100 X
b100 d
b10000 8
b10000 P
b10000 i
b10001100010000000010000000 +
b10001100010000000010000000 j
b10001100010000000010000000 m
01
b10 :
b10 C
b10 L
b10 <
b10 ?
b10 E
b100 ;
b100 A
b100 _
b100 b
b1000 $
b1000 Y
b1000 g
b10000 *
b10000 H
b10000 h
b1100011000100000000100000 k
b0 K
b100000000100000 2
b100000000100000 F
b100000000100000 [
b100000000100000 ]
b100000000100000 Z
b10 6
b10 G
b10 U
b10 `
b1100 W
b10 7
b10 @
b10 T
b1100 V
b1000 f
b1100 e
b10000000010010000 )
b10000000010010000 I
b10000000010010000 ^
b10000 (
b10000 J
b10000 S
b10000 \
b1100011000100000000100000 0
b1100011000100000000100000 M
b1100 9
b1100 N
b1100 Q
b1100 R
1!
#230
0!
#235
b1000 %
b1000 X
b1000 d
b10100 8
b10100 P
b10100 i
b1000010000000010000000 +
b1000010000000010000000 j
b1000010000000010000000 m
b100 <
b100 ?
b100 E
b1000 ;
b1000 A
b1000 _
b1000 b
0#
b10100 *
b10100 H
b10100 h
b1000010000100000000100000 k
b100 6
b100 G
b100 U
b100 `
b1000 W
b100 7
b100 @
b100 T
b1000 V
b1000 e
b10000000010010100 )
b10000000010010100 I
b10000000010010100 ^
b10100 (
b10100 J
b10100 S
b10100 \
b1000010000100000000100000 0
b1000010000100000000100000 M
b10000 9
b10000 N
b10000 Q
b10000 R
1!
#240
0!
#245
b11000 8
b11000 P
b11000 i
b10110010010000010000000 +
b10110010010000010000000 j
b10110010010000010000000 m
b1001 $
b1001 Y
b1001 g
b0 <
b0 ?
b0 E
b11000 *
b11000 H
b11000 h
b1000101100100100000100000 k
b100100000100000 2
b100100000100000 F
b100100000100000 [
b100100000100000 ]
b100100000100000 Z
b10110 W
b1001 f
b10110 e
b1000 7
b1000 @
b1000 T
b0 6
b0 G
b0 U
b0 `
b10010000010011000 )
b10010000010011000 I
b10010000010011000 ^
b11000 (
b11000 J
b11000 S
b11000 \
b1000101100100100000100000 0
b1000101100100100000100000 M
b10100 9
b10100 N
b10100 Q
b10100 R
1!
#250
0!
#255
b1001111 '
b1001111 a
b1001111 c
1=
1,
1.
b1001111 %
b1001111 X
b1001111 d
b1000 ;
b1000 A
b1000 _
b1000 b
b11100 8
b11100 P
b11100 i
b110001000000000000000000 +
b110001000000000000000000 j
b110001000000000000000000 m
1&
05
b0 :
b0 C
b0 L
b0 <
b0 ?
b0 E
b10001 $
b10001 Y
b10001 g
b11100 *
b11100 H
b11100 h
b1001100010000000000000000 k
b0 B
b100011 K
b0 2
b0 F
b0 [
b0 ]
b0 Z
b1001111 6
b1001111 G
b1001111 U
b1001111 `
b10001 W
b1001 V
b0 f
b10001 e
b11100 )
b11100 I
b11100 ^
b11100 (
b11100 J
b11100 S
b11100 \
b10001101001100010000000000000000 0
b10001101001100010000000000000000 M
b11000 9
b11000 N
b11000 Q
b11000 R
1!
#260
0!
#265
b1011001 %
b1011001 X
b1011001 d
b0 '
b0 a
b0 c
b100000 8
b100000 P
b100000 i
b110001000000000000101000 +
b110001000000000000101000 j
b110001000000000000101000 m
1&
1=
0,
0.
b1010 <
b1010 ?
b1010 E
b1011001 ;
b1011001 A
b1011001 _
b1011001 b
b100000 *
b100000 H
b100000 h
b10001100010000000000001010 k
b1010 B
b1000 K
b1010 2
b1010 F
b1010 [
b1010 ]
b1010 Z
b1001111 7
b1001111 @
b1001111 T
b10001 V
b1001000 )
b1001000 I
b1001000 ^
b100000 (
b100000 J
b100000 S
b100000 \
b100010001100010000000000001010 0
b100010001100010000000000001010 M
b11100 9
b11100 N
b11100 Q
b11100 R
1!
#270
0!
#275
1-
b100100 8
b100100 P
b100100 i
b110001000000000000000000 +
b110001000000000000000000 j
b110001000000000000000000 m
0&
1=
b0 <
b0 ?
b0 E
b1000 %
b1000 X
b1000 d
b100100 *
b100100 H
b100100 h
b1001100010000000000000000 k
b0 B
b101011 K
b0 2
b0 F
b0 [
b0 ]
b0 Z
b1001 V
b1000 ;
b1000 A
b1000 _
b1000 b
b100100 )
b100100 I
b100100 ^
b100100 (
b100100 J
b100100 S
b100100 \
b10101101001100010000000000000000 0
b10101101001100010000000000000000 M
b100000 9
b100000 N
b100000 Q
b100000 R
b1000 7
b1000 @
b1000 T
b1011001 6
b1011001 G
b1011001 U
b1011001 `
1!
#280
0!
#285
1&
b101 %
b101 X
b101 d
b101000 8
b101000 P
b101000 i
b10000000000000000000100 +
b10000000000000000000100 j
b10000000000000000000100 m
1=
0-
b1 <
b1 ?
b1 E
b101 ;
b101 A
b101 _
b101 b
b10000 $
b10000 Y
b10000 g
b101000 *
b101000 H
b101000 h
b10000100000000000000000001 k
b1 B
b1000 K
b1 2
b1 F
b1 [
b1 ]
b1 Z
b100 6
b100 G
b100 U
b100 `
b10000 W
b100 7
b100 @
b100 T
b10000 V
b10000 e
b101100 )
b101100 I
b101100 ^
b101000 (
b101000 J
b101000 S
b101000 \
b100010000100000000000000000001 0
b100010000100000000000000000001 M
b100100 9
b100100 N
b100100 Q
b100100 R
1!
#290
0!
#295
1/
b0 <
b0 ?
b0 E
b100 8
b100 P
b100 i
b100 +
b100 j
b100 m
0&
0=
b0 $
b0 Y
b0 g
b0 %
b0 X
b0 d
b101100 *
b101100 H
b101100 h
b1 k
b10 K
b0 W
b0 V
b0 e
b0 ;
b0 A
b0 _
b0 b
b110000 )
b110000 I
b110000 ^
b101100 (
b101100 J
b101100 S
b101100 \
b1000000000000000000000000001 0
b1000000000000000000000000001 M
b101000 9
b101000 N
b101000 Q
b101000 R
b0 7
b0 @
b0 T
b0 6
b0 G
b0 U
b0 `
1!
#300
0!
#305
b111 4
b111 >
b111 D
1&
15
b10 :
b10 C
b10 L
b1000 8
b1000 P
b1000 i
b0 %
b0 X
b0 d
b10011010000000010101000 +
b10011010000000010101000 j
b10011010000000010101000 m
0/
b101 <
b101 ?
b101 E
b0 ;
b0 A
b0 _
b0 b
b1000 $
b1000 Y
b1000 g
b1000 *
b1000 H
b1000 h
b10000100110100000000101010 k
b101010 B
b0 K
b100000000101010 2
b100000000101010 F
b100000000101010 [
b100000000101010 ]
b100000000101010 Z
b101 6
b101 G
b101 U
b101 `
b10011 W
b101 7
b101 @
b101 T
b10000 V
b1000 f
b10011 e
b10000000010110000 )
b10000000010110000 I
b10000000010110000 ^
b1000 (
b1000 J
b1000 S
b1000 \
b10000100110100000000101010 0
b10000100110100000000101010 M
b100 9
b100 N
b100 Q
b100 R
1!
#310
0!
#315
13
1#
11
b0 %
b0 X
b0 d
b10001100 8
b10001100 P
b10001100 i
b10000000 +
b10000000 j
b10000000 m
b110 4
b110 >
b110 D
0&
05
b1 :
b1 C
b1 L
b0 <
b0 ?
b0 E
b0 ;
b0 A
b0 _
b0 b
b0 $
b0 Y
b0 g
b10001100 *
b10001100 H
b10001100 h
b1000000000000000000100000 k
b100000 B
b100 K
b100000 2
b100000 F
b100000 [
b100000 ]
b100000 Z
b0 6
b0 G
b0 U
b0 `
b0 W
b0 7
b0 @
b0 T
b1000 V
b0 f
b0 e
b10001100 )
b10001100 I
b10001100 ^
b1100 (
b1100 J
b1100 S
b1100 \
b10001000000000000000000100000 0
b10001000000000000000000100000 M
b1000 9
b1000 N
b1000 Q
b1000 R
1!
#320
0!
#325
03
0#
bx %
bx X
bx d
b10010000 8
b10010000 P
b10010000 i
b0xxxxxxxxxxxxxxxxxxxxxxxx00 +
b0xxxxxxxxxxxxxxxxxxxxxxxx00 j
b0xxxxxxxxxxxxxxxxxxxxxxxx00 m
b10 4
b10 >
b10 D
01
b0 :
b0 C
b0 L
bx <
bx ?
bx E
bx ;
bx A
bx _
bx b
bx $
bx Y
bx g
b10010000 *
b10010000 H
b10010000 h
bx k
bx B
bx K
bx 2
bx F
bx [
bx ]
bx Z
bx 6
bx G
bx U
bx `
bx W
bx 7
bx @
bx T
bx V
bx f
bx e
bx )
bx I
bx ^
b10010000 (
b10010000 J
b10010000 S
b10010000 \
bx 0
bx M
b10001100 9
b10001100 N
b10001100 Q
b10001100 R
1!
#330
0!
