JorgeHenriqueMarquesGomes/simulacao.vcd
$date
	Thu Feb 13 23:03:20 2025
$end
$version
	Icarus Verilog
$end
$timescale
	1ns
$end
$scope module Simulacao $end
$var wire 32 ! instrucao [31:0] $end
$var reg 1 " clk $end
$var reg 1 # reset $end
$scope module unidade_fetch $end
$var wire 1 " clk $end
$var wire 1 # reset $end
$var wire 32 $ signExtendedOffset [31:0] $end
$var wire 32 % shiftedOffset [31:0] $end
$var wire 32 & sentradaALU [31:0] $end
$var wire 32 ' pc_incrementado [31:0] $end
$var wire 32 ( pc_final_final [31:0] $end
$var wire 32 ) pc_final [31:0] $end
$var wire 32 * memoryReadData [31:0] $end
$var wire 32 + jumpshift2 [31:0] $end
$var wire 32 , jumpAddress [31:0] $end
$var wire 1 - jump $end
$var wire 32 . instrucao [31:0] $end
$var wire 32 / branchAddress [31:0] $end
$var wire 1 0 Zero $end
$var wire 5 1 Writeregister [4:0] $end
$var wire 32 2 WriteData [31:0] $end
$var wire 1 3 RegWrite $end
$var wire 1 4 RegDst $end
$var wire 32 5 ReadData2 [31:0] $end
$var wire 32 6 ReadData1 [31:0] $end
$var wire 1 7 MemtoReg $end
$var wire 1 8 MemWrite $end
$var wire 1 9 MemRead $end
$var wire 1 : Branch $end
$var wire 2 ; ALUop [1:0] $end
$var wire 1 < ALUSrc $end
$var wire 32 = ALUResult [31:0] $end
$var wire 4 > ALUOperation [3:0] $end
$var reg 32 ? pc [31:0] $end
$scope module ALUcontrol $end
$var wire 6 @ OPcode [5:0] $end
$var wire 2 A ALUop [1:0] $end
$var reg 4 B ALUOperation [3:0] $end
$upscope $end
$scope module JUMPADDRESS $end
$var wire 32 C B [31:0] $end
$var wire 32 D A [31:0] $end
$var reg 32 E Saida [31:0] $end
$upscope $end
$scope module MUXwrite $end
$var wire 5 F um [4:0] $end
$var wire 5 G zero [4:0] $end
$var wire 1 4 A $end
$var reg 5 H Saida [4:0] $end
$upscope $end
$scope module adder $end
$var wire 32 I sum [31:0] $end
$var wire 32 J b [31:0] $end
$var wire 32 K a [31:0] $end
$upscope $end
$scope module alu $end
$var wire 4 L ALUOperation [3:0] $end
$var wire 1 " clk $end
$var wire 1 0 Zero $end
$var wire 32 M B [31:0] $end
$var wire 32 N A [31:0] $end
$var reg 32 O ALUResult [31:0] $end
$upscope $end
$scope module branch $end
$var wire 1 P A $end
$var wire 32 Q um [31:0] $end
$var wire 32 R zero [31:0] $end
$var reg 32 S Saida [31:0] $end
$upscope $end
$scope module controle $end
$var wire 6 T OPcode [5:0] $end
$var reg 1 < ALUSrc $end
$var reg 2 U ALUop [1:0] $end
$var reg 1 : Branch $end
$var reg 1 9 MemRead $end
$var reg 1 8 MemWrite $end
$var reg 1 7 MemtoReg $end
$var reg 1 4 RegDst $end
$var reg 1 3 RegWrite $end
$var reg 1 - jump $end
$upscope $end
$scope module datamemory $end
$var wire 1 9 MemRead $end
$var wire 1 8 MemWrite $end
$var wire 32 V address [31:0] $end
$var wire 1 " clk $end
$var wire 32 W writeData [31:0] $end
$var wire 32 X readData [31:0] $end
$var integer 32 Y i [31:0] $end
$upscope $end
$scope module jumpmux $end
$var wire 1 - A $end
$var wire 32 Z um [31:0] $end
$var wire 32 [ zero [31:0] $end
$var reg 32 \ Saida [31:0] $end
$upscope $end
$scope module memoria $end
$var wire 32 ] addr [31:0] $end
$var wire 32 ^ instrucao [31:0] $end
$upscope $end
$scope module memtoReg $end
$var wire 1 7 A $end
$var wire 32 _ um [31:0] $end
$var wire 32 ` zero [31:0] $end
$var reg 32 a Saida [31:0] $end
$upscope $end
$scope module muxALU $end
$var wire 1 < A $end
$var wire 32 b zero [31:0] $end
$var wire 32 c um [31:0] $end
$var reg 32 d Saida [31:0] $end
$upscope $end
$scope module regfile $end
$var wire 32 e ReadData1 [31:0] $end
$var wire 32 f ReadData2 [31:0] $end
$var wire 5 g ReadRegister1 [4:0] $end
$var wire 5 h ReadRegister2 [4:0] $end
$var wire 1 3 RegWrite $end
$var wire 32 i WriteData [31:0] $end
$var wire 5 j WriteRegister [4:0] $end
$var wire 1 " clk $end
$var integer 32 k i [31:0] $end
$upscope $end
$scope module shiftLeft $end
$var wire 32 l out [31:0] $end
$var wire 32 m in [31:0] $end
$upscope $end
$scope module shiftLeftJump $end
$var wire 32 n in [31:0] $end
$var wire 32 o out [31:0] $end
$upscope $end
$scope module signExtend $end
$var wire 16 p in [15:0] $end
$var wire 32 q out [31:0] $end
$upscope $end
$scope module somador $end
$var wire 32 r in [31:0] $end
$var wire 32 s out [31:0] $end
$upscope $end
$upscope $end
$upscope $end
$enddefinitions $end
$comment Show the parameter values. $end
$dumpall
$end
#0
$dumpvars
bx s
bx r
bx q
bx p
bx00 o
bx n
bx m
bx00 l
b100000 k
bx j
bx i
bx h
bx g
bx f
bx e
bx d
bx c
bx b
bx a
bx `
bx _
bx ^
bx ]
b0 \
bx [
bx00 Z
b100000000 Y
bx X
bx W
bx V
bx U
bx T
bx S
bx R
bx Q
xP
bx O
bx N
bx M
bx L
bx K
bx00 J
bx I
bx H
bx G
bx F
bx00 E
bx D
bx00 C
bx B
bx A
bx @
bx ?
bx >
bx =
x<
bx ;
x:
x9
x8
x7
bx 6
bx 5
x4
x3
bx 2
bx 1
x0
bx /
bx .
x-
bx00 ,
bx00 +
bx *
bx )
b0 (
bx '
bx &
bx00 %
bx $
0#
0"
bx !
$end
#10
b100 (
b100 \
b10000 /
b10000 I
b10000 Q
0P
b1100 %
b1100 J
b1100 l
b11 &
b11 M
b11 d
b1000 1
b1000 H
b1000 j
b10 >
b10 B
b10 L
0-
b0 ;
b0 A
b0 U
0:
08
09
13
07
1<
04
b10000000001000000000000000001100 +
b10000000001000000000000000001100 C
b10000000001000000000000000001100 o
b11 $
b11 c
b11 m
b11 q
b11 p
b0 5
b0 W
b0 b
b0 f
b1000 h
b0 6
b0 N
b0 e
b0 g
b1000 G
b0 F
b11 @
b1000 T
b100000000010000000000000000011 !
b100000000010000000000000000011 .
b100000000010000000000000000011 ^
b100000000010000000000000000011 n
b1000000000000000001100 ,
b1000000000000000001100 E
b1000000000000000001100 Z
b100 )
b100 S
b100 [
b100 '
b100 D
b100 K
b100 R
b100 s
b0 ?
b0 ]
b0 r
b0 *
b0 X
b0 _
00
b11 2
b11 a
b11 i
b11 =
b11 O
b11 V
b11 `
1#
1"
#20
b11 5
b11 W
b11 b
b11 f
0"
#30
10
b0 2
b0 a
b0 i
b0 =
b0 O
b0 V
b0 `
b1001000000000000000000 ,
b1001000000000000000000 E
b1001000000000000000000 Z
b0 %
b0 J
b0 l
b0 &
b0 M
b0 d
b1001 1
b1001 H
b1001 j
b10000000001001000000000000000000 +
b10000000001001000000000000000000 C
b10000000001001000000000000000000 o
b0 $
b0 c
b0 m
b0 q
b0 p
b0 5
b0 W
b0 b
b0 f
b1001 h
b1001 G
b0 @
b1000 (
b1000 \
b100000000010010000000000000000 !
b100000000010010000000000000000 .
b100000000010010000000000000000 ^
b100000000010010000000000000000 n
b1000 )
b1000 S
b1000 [
b1000 /
b1000 I
b1000 Q
b1000 '
b1000 D
b1000 K
b1000 R
b1000 s
b100 ?
b100 ]
b100 r
1"
0#
#40
0"
#50
00
b1 2
b1 a
b1 i
b1 =
b1 O
b1 V
b1 `
b100101001000000000000000100 ,
b100101001000000000000000100 E
b100101001000000000000000100 Z
b100 %
b100 J
b100 l
b1 &
b1 M
b1 d
b10000100101001000000000000000100 +
b10000100101001000000000000000100 C
b10000100101001000000000000000100 o
b1 $
b1 c
b1 m
b1 q
b1 p
b1001 g
b1 @
b1100 (
b1100 \
b100001001010010000000000000001 !
b100001001010010000000000000001 .
b100001001010010000000000000001 ^
b100001001010010000000000000001 n
b1100 )
b1100 S
b1100 [
b10000 /
b10000 I
b10000 Q
b1100 '
b1100 D
b1100 K
b1100 R
b1100 s
b1000 ?
b1000 ]
b1000 r
1"
#60
b1 6
b1 N
b1 e
b1 5
b1 W
b1 b
b1 f
0"
#70
b110 >
b110 B
b110 L
b100001001000000000000000100 ,
b100001001000000000000000100 E
b100001001000000000000000100 Z
0<
03
1:
b1 ;
b1 A
b1 U
b1000100001001000000000000000100 +
b1000100001001000000000000000100 C
b1000100001001000000000000000100 o
b11 6
b11 N
b11 e
b1000 g
b100 T
b10000 (
b10000 \
b10001000010010000000000000001 !
b10001000010010000000000000001 .
b10001000010010000000000000001 ^
b10001000010010000000000000001 n
b10000 )
b10000 S
b10000 [
b10100 /
b10100 I
b10100 Q
b10000 '
b10000 D
b10000 K
b10000 R
b10000 s
b1100 ?
b1100 ]
b1100 r
b10 2
b10 a
b10 i
b10 =
b10 O
b10 V
b10 `
1"
#80
0"
#90
10
b0 2
b0 a
b0 i
b10000000000000000001000 ,
b10000000000000000001000 E
b10000000000000000001000 Z
b1000 %
b1000 J
b1000 l
b0 &
b0 M
b0 d
b0 =
b0 O
b0 V
b0 `
b10000 1
b10000 H
b10000 j
b10 >
b10 B
b10 L
1-
b0 ;
b0 A
b0 U
0:
b100000010000000000000000001000 +
b100000010000000000000000001000 C
b100000010000000000000000001000 o
b10 $
b10 c
b10 m
b10 q
b10 p
b0 5
b0 W
b0 b
b0 f
b10000 h
b0 6
b0 N
b0 e
b0 g
b10000 G
b10 @
b10 T
b10000000000000000001000 (
b10000000000000000001000 \
b1000000100000000000000000010 !
b1000000100000000000000000010 .
b1000000100000000000000000010 ^
b1000000100000000000000000010 n
b10100 )
b10100 S
b10100 [
b11100 /
b11100 I
b11100 Q
b10100 '
b10100 D
b10100 K
b10100 R
b10100 s
b10000 ?
b10000 ]
b10000 r
1"
#100
0"
#110
00
b10 2
b10 a
b10 i
b10000000000000000001100 (
b10000000000000000001100 \
b100101001000000000000000100 ,
b100101001000000000000000100 E
b100101001000000000000000100 Z
b100 %
b100 J
b100 l
b1 &
b1 M
b1 d
b10 =
b10 O
b10 V
b10 `
b1001 1
b1001 H
b1001 j
1<
13
0-
b10000100101001000000000000000100 +
b10000100101001000000000000000100 C
b10000100101001000000000000000100 o
b1 $
b1 c
b1 m
b1 q
b1 p
b1 5
b1 W
b1 b
b1 f
b1001 h
b1 6
b1 N
b1 e
b1001 g
b1001 G
b1 @
b1000 T
b100001001010010000000000000001 !
b100001001010010000000000000001 .
b100001001010010000000000000001 ^
b100001001010010000000000000001 n
b10000000000000000001100 )
b10000000000000000001100 S
b10000000000000000001100 [
b10000000000000000010000 /
b10000000000000000010000 I
b10000000000000000010000 Q
b10000000000000000001100 '
b10000000000000000001100 D
b10000000000000000001100 K
b10000000000000000001100 R
b10000000000000000001100 s
b10000000000000000001000 ?
b10000000000000000001000 ]
b10000000000000000001000 r
1"
#120
b10 6
b10 N
b10 e
b10 5
b10 W
b10 b
b10 f
0"
#130
b110 >
b110 B
b110 L
b10 &
b10 M
b10 d
b100001001000000000000000100 ,
b100001001000000000000000100 E
b100001001000000000000000100 Z
b1 ;
b1 A
b1 U
1:
03
0<
b1000100001001000000000000000100 +
b1000100001001000000000000000100 C
b1000100001001000000000000000100 o
b11 6
b11 N
b11 e
b1000 g
b100 T
b10000000000000000010000 (
b10000000000000000010000 \
b10001000010010000000000000001 !
b10001000010010000000000000001 .
b10001000010010000000000000001 ^
b10001000010010000000000000001 n
b10000000000000000010000 )
b10000000000000000010000 S
b10000000000000000010000 [
b10000000000000000010100 /
b10000000000000000010100 I
b10000000000000000010100 Q
b10000000000000000010000 '
b10000000000000000010000 D
b10000000000000000010000 K
b10000000000000000010000 R
b10000000000000000010000 s
b10000000000000000001100 ?
b10000000000000000001100 ]
b10000000000000000001100 r
b1 2
b1 a
b1 i
b1 =
b1 O
b1 V
b1 `
1"
#140
0"
#150
10
b0 2
b0 a
b0 i
b10000000000000000001000 ,
b10000000000000000001000 E
b10000000000000000001000 Z
b1000 %
b1000 J
b1000 l
b0 &
b0 M
b0 d
b0 =
b0 O
b0 V
b0 `
b10000 1
b10000 H
b10000 j
b10 >
b10 B
b10 L
0:
b0 ;
b0 A
b0 U
1-
b100000010000000000000000001000 +
b100000010000000000000000001000 C
b100000010000000000000000001000 o
b10 $
b10 c
b10 m
b10 q
b10 p
b0 5
b0 W
b0 b
b0 f
b10000 h
b0 6
b0 N
b0 e
b0 g
b10000 G
b10 @
b10 T
b10000000000000000001000 (
b10000000000000000001000 \
b1000000100000000000000000010 !
b1000000100000000000000000010 .
b1000000100000000000000000010 ^
b1000000100000000000000000010 n
b10000000000000000010100 )
b10000000000000000010100 S
b10000000000000000010100 [
b10000000000000000011100 /
b10000000000000000011100 I
b10000000000000000011100 Q
b10000000000000000010100 '
b10000000000000000010100 D
b10000000000000000010100 K
b10000000000000000010100 R
b10000000000000000010100 s
b10000000000000000010000 ?
b10000000000000000010000 ]
b10000000000000000010000 r
1"
#160
0"
#170
00
b11 2
b11 a
b11 i
b10000000000000000001100 (
b10000000000000000001100 \
b100101001000000000000000100 ,
b100101001000000000000000100 E
b100101001000000000000000100 Z
b100 %
b100 J
b100 l
b1 &
b1 M
b1 d
b11 =
b11 O
b11 V
b11 `
b1001 1
b1001 H
b1001 j
0-
13
1<
b10000100101001000000000000000100 +
b10000100101001000000000000000100 C
b10000100101001000000000000000100 o
b1 $
b1 c
b1 m
b1 q
b1 p
b10 5
b10 W
b10 b
b10 f
b1001 h
b10 6
b10 N
b10 e
b1001 g
b1001 G
b1 @
b1000 T
b100001001010010000000000000001 !
b100001001010010000000000000001 .
b100001001010010000000000000001 ^
b100001001010010000000000000001 n
b10000000000000000001100 )
b10000000000000000001100 S
b10000000000000000001100 [
b10000000000000000010000 /
b10000000000000000010000 I
b10000000000000000010000 Q
b10000000000000000001100 '
b10000000000000000001100 D
b10000000000000000001100 K
b10000000000000000001100 R
b10000000000000000001100 s
b10000000000000000001000 ?
b10000000000000000001000 ]
b10000000000000000001000 r
1"
#180
b11 6
b11 N
b11 e
b11 5
b11 W
b11 b
b11 f
0"
#190
1P
10
b11 &
b11 M
b11 d
b110 >
b110 B
b110 L
b100001001000000000000000100 ,
b100001001000000000000000100 E
b100001001000000000000000100 Z
0<
03
1:
b1 ;
b1 A
b1 U
b1000100001001000000000000000100 +
b1000100001001000000000000000100 C
b1000100001001000000000000000100 o
b1000 g
b100 T
b10000000000000000010100 (
b10000000000000000010100 \
b10001000010010000000000000001 !
b10001000010010000000000000001 .
b10001000010010000000000000001 ^
b10001000010010000000000000001 n
b10000000000000000010100 )
b10000000000000000010100 S
b10000000000000000010100 [
b10000000000000000010100 /
b10000000000000000010100 I
b10000000000000000010100 Q
b10000000000000000010000 '
b10000000000000000010000 D
b10000000000000000010000 K
b10000000000000000010000 R
b10000000000000000010000 s
b10000000000000000001100 ?
b10000000000000000001100 ]
b10000000000000000001100 r
b0 2
b0 a
b0 i
b0 =
b0 O
b0 V
b0 `
1"
#200
0"
#210
00
b11 2
b11 a
b11 i
b11 =
b11 O
b11 V
b11 `
0P
b100100000010100000010000000 ,
b100100000010100000010000000 E
b100100000010100000010000000 Z
b10100000010000000 %
b10100000010000000 J
b10100000010000000 l
b0 &
b0 M
b0 d
b1010 1
b1010 H
b1010 j
b10 >
b10 B
b10 L
b10 ;
b10 A
b10 U
0:
13
14
b100100000010100000010000000 +
b100100000010100000010000000 C
b100100000010100000010000000 o
b101000000100000 $
b101000000100000 c
b101000000100000 m
b101000000100000 q
b101000000100000 p
b0 5
b0 W
b0 b
b0 f
b0 h
b1001 g
b0 G
b1010 F
b100000 @
b0 T
b10000000000000000011000 (
b10000000000000000011000 \
b1001000000101000000100000 !
b1001000000101000000100000 .
b1001000000101000000100000 ^
b1001000000101000000100000 n
b10000000000000000011000 )
b10000000000000000011000 S
b10000000000000000011000 [
b10000010100000010011000 /
b10000010100000010011000 I
b10000010100000010011000 Q
b10000000000000000011000 '
b10000000000000000011000 D
b10000000000000000011000 K
b10000000000000000011000 R
b10000000000000000011000 s
b10000000000000000010100 ?
b10000000000000000010100 ]
b10000000000000000010100 r
1"
#220
0"
#230
00
b1 2
b1 a
b1 i
b1001000000000000000100 ,
b1001000000000000000100 E
b1001000000000000000100 Z
b100 %
b100 J
b100 l
b1 &
b1 M
b1 d
b1 =
b1 O
b1 V
b1 `
b1001 1
b1001 H
b1001 j
04
1<
b0 ;
b0 A
b0 U
b10000000001001000000000000000100 +
b10000000001001000000000000000100 C
b10000000001001000000000000000100 o
b1 $
b1 c
b1 m
b1 q
b1 p
b11 5
b11 W
b11 b
b11 f
b1001 h
b0 6
b0 N
b0 e
b0 g
b1001 G
b0 F
b1 @
b1000 T
b10000000000000000011100 (
b10000000000000000011100 \
b100000000010010000000000000001 !
b100000000010010000000000000001 .
b100000000010010000000000000001 ^
b100000000010010000000000000001 n
b10000000000000000011100 )
b10000000000000000011100 S
b10000000000000000011100 [
b10000000000000000100000 /
b10000000000000000100000 I
b10000000000000000100000 Q
b10000000000000000011100 '
b10000000000000000011100 D
b10000000000000000011100 K
b10000000000000000011100 R
b10000000000000000011100 s
b10000000000000000011000 ?
b10000000000000000011000 ]
b10000000000000000011000 r
1"
#240
b1 5
b1 W
b1 b
b1 f
0"
#250
b10 2
b10 a
b10 i
b101001001010110000010001000 ,
b101001001010110000010001000 E
b101001001010110000010001000 Z
b10110000010001000 %
b10110000010001000 J
b10110000010001000 l
b10 =
b10 O
b10 V
b10 `
b1011 1
b1011 H
b1011 j
b110 >
b110 B
b110 L
b10 ;
b10 A
b10 U
0<
14
b101001001010110000010001000 +
b101001001010110000010001000 C
b101001001010110000010001000 o
b101100000100010 $
b101100000100010 c
b101100000100010 m
b101100000100010 q
b101100000100010 p
b11 6
b11 N
b11 e
b1010 g
b1011 F
b100010 @
b0 T
b10000000000000000100000 (
b10000000000000000100000 \
b1010010010101100000100010 !
b1010010010101100000100010 .
b1010010010101100000100010 ^
b1010010010101100000100010 n
b10000000000000000100000 )
b10000000000000000100000 S
b10000000000000000100000 [
b10000010110000010101000 /
b10000010110000010101000 I
b10000010110000010101000 Q
b10000000000000000100000 '
b10000000000000000100000 D
b10000000000000000100000 K
b10000000000000000100000 R
b10000000000000000100000 s
b10000000000000000011100 ?
b10000000000000000011100 ]
b10000000000000000011100 r
1"
#260
0"
#270
10
b0 2
b0 a
b0 i
b1011000000000000000000 ,
b1011000000000000000000 E
b1011000000000000000000 Z
b0 %
b0 J
b0 l
b0 &
b0 M
b0 d
b0 =
b0 O
b0 V
b0 `
b10 >
b10 B
b10 L
04
1<
03
18
b0 ;
b0 A
b0 U
b10110000001011000000000000000000 +
b10110000001011000000000000000000 C
b10110000001011000000000000000000 o
b0 $
b0 c
b0 m
b0 q
b0 p
b10 5
b10 W
b10 b
b10 f
b1011 h
b0 6
b0 N
b0 e
b0 g
b1011 G
b0 F
b0 @
b101011 T
b10000000000000000100100 (
b10000000000000000100100 \
b10101100000010110000000000000000 !
b10101100000010110000000000000000 .
b10101100000010110000000000000000 ^
b10101100000010110000000000000000 n
b10000000000000000100100 )
b10000000000000000100100 S
b10000000000000000100100 [
b10000000000000000100100 /
b10000000000000000100100 I
b10000000000000000100100 Q
b10000000000000000100100 '
b10000000000000000100100 D
b10000000000000000100100 K
b10000000000000000100100 R
b10000000000000000100100 s
b10000000000000000100000 ?
b10000000000000000100000 ]
b10000000000000000100000 r
1"
#280
0"
#290
b10 2
b10 a
b10 i
b10 *
b10 X
b10 _
b1100000000000000000000 ,
b1100000000000000000000 E
b1100000000000000000000 Z
b1100 1
b1100 H
b1100 j
08
19
13
17
b110000001100000000000000000000 +
b110000001100000000000000000000 C
b110000001100000000000000000000 o
b0 5
b0 W
b0 b
b0 f
b1100 h
b1100 G
b100011 T
b10000000000000000101000 (
b10000000000000000101000 \
b10001100000011000000000000000000 !
b10001100000011000000000000000000 .
b10001100000011000000000000000000 ^
b10001100000011000000000000000000 n
b10000000000000000101000 )
b10000000000000000101000 S
b10000000000000000101000 [
b10000000000000000101000 /
b10000000000000000101000 I
b10000000000000000101000 Q
b10000000000000000101000 '
b10000000000000000101000 D
b10000000000000000101000 K
b10000000000000000101000 R
b10000000000000000101000 s
b10000000000000000100100 ?
b10000000000000000100100 ]
b10000000000000000100100 r
1"
#300
b10 5
b10 W
b10 b
b10 f
0"
#310
b100 2
b100 a
b100 i
00
b0 *
b0 X
b0 _
b101101100011010000010000000 ,
b101101100011010000010000000 E
b101101100011010000010000000 Z
b11010000010000000 %
b11010000010000000 J
b11010000010000000 l
b10 &
b10 M
b10 d
b100 =
b100 O
b100 V
b100 `
b1101 1
b1101 H
b1101 j
14
0<
07
09
b10 ;
b10 A
b10 U
b101101100011010000010000000 +
b101101100011010000010000000 C
b101101100011010000010000000 o
b110100000100000 $
b110100000100000 c
b110100000100000 m
b110100000100000 q
b110100000100000 p
b10 6
b10 N
b10 e
b1011 g
b1101 F
b100000 @
b0 T
b10000000000000000101100 (
b10000000000000000101100 \
b1011011000110100000100000 !
b1011011000110100000100000 .
b1011011000110100000100000 ^
b1011011000110100000100000 n
b10000000000000000101100 )
b10000000000000000101100 S
b10000000000000000101100 [
b10000011010000010101100 /
b10000011010000010101100 I
b10000011010000010101100 Q
b10000000000000000101100 '
b10000000000000000101100 D
b10000000000000000101100 K
b10000000000000000101100 R
b10000000000000000101100 s
b10000000000000000101000 ?
b10000000000000000101000 ]
b10000000000000000101000 r
1"
#320
0"
#330
x0
bx 2
bx a
bx i
b0xxxxxxxxxxxxxxxxxxxxxxxxxx00 ,
b0xxxxxxxxxxxxxxxxxxxxxxxxxx00 E
b0xxxxxxxxxxxxxxxxxxxxxxxxxx00 Z
bx00 %
bx00 J
bx00 l
bx &
bx M
bx d
bx =
bx O
bx V
bx `
bx 1
bx H
bx j
b0 ;
b0 A
b0 U
03
04
bx00 +
bx00 C
bx00 o
bx $
bx c
bx m
bx q
bx p
bx 5
bx W
bx b
bx f
bx h
bx 6
bx N
bx e
bx g
bx G
bx F
bx @
bx T
b10000000000000000110000 (
b10000000000000000110000 \
bx !
bx .
bx ^
bx n
b10000000000000000110000 )
b10000000000000000110000 S
b10000000000000000110000 [
bx /
bx I
bx Q
b10000000000000000110000 '
b10000000000000000110000 D
b10000000000000000110000 K
b10000000000000000110000 R
b10000000000000000110000 s
b10000000000000000101100 ?
b10000000000000000101100 ]
b10000000000000000101100 r
1"
#340
0"
#350
b10000000000000000110100 (
b10000000000000000110100 \
b10000000000000000110100 )
b10000000000000000110100 S
b10000000000000000110100 [
b10000000000000000110100 '
b10000000000000000110100 D
b10000000000000000110100 K
b10000000000000000110100 R
b10000000000000000110100 s
b10000000000000000110000 ?
b10000000000000000110000 ]
b10000000000000000110000 r
1"
#360
0"
#370
b10000000000000000111000 (
b10000000000000000111000 \
b10000000000000000111000 )
b10000000000000000111000 S
b10000000000000000111000 [
b10000000000000000111000 '
b10000000000000000111000 D
b10000000000000000111000 K
b10000000000000000111000 R
b10000000000000000111000 s
b10000000000000000110100 ?
b10000000000000000110100 ]
b10000000000000000110100 r
1"
#380
0"
#390
b10000000000000000111100 (
b10000000000000000111100 \
b10000000000000000111100 )
b10000000000000000111100 S
b10000000000000000111100 [
b10000000000000000111100 '
b10000000000000000111100 D
b10000000000000000111100 K
b10000000000000000111100 R
b10000000000000000111100 s
b10000000000000000111000 ?
b10000000000000000111000 ]
b10000000000000000111000 r
1"
#400
0"
#410
b10000000000000001000000 (
b10000000000000001000000 \
b10000000000000001000000 )
b10000000000000001000000 S
b10000000000000001000000 [
b10000000000000001000000 '
b10000000000000001000000 D
b10000000000000001000000 K
b10000000000000001000000 R
b10000000000000001000000 s
b10000000000000000111100 ?
b10000000000000000111100 ]
b10000000000000000111100 r
1"
#420
0"
#430
b10000000000000001000100 (
b10000000000000001000100 \
b10000000000000001000100 )
b10000000000000001000100 S
b10000000000000001000100 [
b10000000000000001000100 '
b10000000000000001000100 D
b10000000000000001000100 K
b10000000000000001000100 R
b10000000000000001000100 s
b10000000000000001000000 ?
b10000000000000001000000 ]
b10000000000000001000000 r
1"
